# Blender v2.79 (sub 0) OBJ File: 'Pacman.blend'
# www.blender.org
mtllib PacMan4.mtl
o Sphere.003_Sphere.008
v 0.000000 -0.000000 -1.000000
v -0.000000 -0.000001 1.000000
v -0.137950 -0.137950 0.980785
v -0.270598 -0.270598 0.923880
v -0.392848 -0.392848 0.831470
v -0.500000 -0.500000 0.707107
v -0.587938 -0.587938 0.555570
v -0.653281 -0.653282 0.382683
v -0.693520 -0.693520 0.195090
v -0.707107 -0.707107 0.000000
v -0.693520 -0.693520 -0.195090
v -0.653281 -0.653282 -0.382683
v -0.587938 -0.587938 -0.555570
v -0.500000 -0.500000 -0.707107
v -0.392847 -0.392848 -0.831470
v -0.270598 -0.270598 -0.923880
v -0.137950 -0.137950 -0.980785
v -0.162212 -0.108387 0.980785
v -0.318190 -0.212608 0.923880
v -0.461940 -0.308659 0.831470
v -0.587938 -0.392848 0.707107
v -0.691342 -0.461940 0.555570
v -0.768178 -0.513280 0.382683
v -0.815493 -0.544895 0.195090
v -0.831470 -0.555570 0.000000
v -0.815493 -0.544895 -0.195090
v -0.768178 -0.513280 -0.382683
v -0.691342 -0.461940 -0.555570
v -0.587938 -0.392848 -0.707107
v -0.461940 -0.308658 -0.831470
v -0.318190 -0.212608 -0.923880
v -0.162212 -0.108387 -0.980785
v -0.180240 -0.074658 0.980785
v -0.353553 -0.146447 0.923880
v -0.513280 -0.212608 0.831470
v -0.653281 -0.270598 0.707107
v -0.768177 -0.318190 0.555570
v -0.853553 -0.353554 0.382683
v -0.906127 -0.375330 0.195090
v -0.923880 -0.382684 0.000000
v -0.906127 -0.375330 -0.195090
v -0.853553 -0.353554 -0.382683
v -0.768177 -0.318190 -0.555570
v -0.653281 -0.270598 -0.707107
v -0.513280 -0.212608 -0.831470
v -0.353553 -0.146447 -0.923880
v -0.180240 -0.074658 -0.980785
v -0.191342 -0.038061 0.980785
v -0.375330 -0.074658 0.923880
v -0.544895 -0.108387 0.831470
v -0.693520 -0.137950 0.707107
v -0.815493 -0.162212 0.555570
v -0.906127 -0.180240 0.382683
v -0.961939 -0.191342 0.195090
v -0.980785 -0.195090 0.000000
v -0.961939 -0.191342 -0.195090
v -0.906127 -0.180240 -0.382683
v -0.815493 -0.162212 -0.555570
v -0.693520 -0.137950 -0.707107
v -0.544895 -0.108387 -0.831470
v -0.375330 -0.074658 -0.923880
v -0.191342 -0.038061 -0.980785
v -0.195090 -0.000000 0.980785
v -0.382683 -0.000000 0.923880
v -0.555570 -0.000000 0.831470
v -0.707107 -0.000000 0.707107
v -0.831469 -0.000000 0.555570
v -0.923879 -0.000000 0.382683
v -0.980785 -0.000000 0.195090
v -1.000000 -0.000000 0.000000
v -0.980785 -0.000000 -0.195090
v -0.923879 -0.000000 -0.382683
v -0.831469 -0.000000 -0.555570
v -0.707107 -0.000000 -0.707107
v -0.555570 -0.000000 -0.831470
v -0.382683 -0.000000 -0.923880
v -0.195090 -0.000000 -0.980785
v -0.191342 0.038060 0.980785
v -0.375330 0.074658 0.923880
v -0.544895 0.108386 0.831470
v -0.693520 0.137949 0.707107
v -0.815493 0.162211 0.555570
v -0.906127 0.180240 0.382683
v -0.961939 0.191342 0.195090
v -0.980785 0.195090 0.000000
v -0.961939 0.191342 -0.195090
v -0.906127 0.180240 -0.382683
v -0.815493 0.162211 -0.555570
v -0.693520 0.137949 -0.707107
v -0.544895 0.108386 -0.831470
v -0.375330 0.074658 -0.923880
v -0.191342 0.038060 -0.980785
v -0.180240 0.074658 0.980785
v -0.353553 0.146446 0.923880
v -0.513280 0.212607 0.831470
v -0.653281 0.270598 0.707107
v -0.768177 0.318189 0.555570
v -0.853553 0.353553 0.382683
v -0.906127 0.375330 0.195090
v -0.923879 0.382683 0.000000
v -0.906127 0.375330 -0.195090
v -0.853553 0.353553 -0.382683
v -0.768177 0.318189 -0.555570
v -0.653281 0.270598 -0.707107
v -0.513280 0.212607 -0.831470
v -0.353553 0.146446 -0.923880
v -0.180240 0.074657 -0.980785
v -0.162212 0.108386 0.980785
v -0.318190 0.212607 0.923880
v -0.461940 0.308658 0.831470
v -0.587938 0.392847 0.707107
v -0.691341 0.461939 0.555570
v -0.768178 0.513280 0.382683
v -0.815493 0.544895 0.195090
v -0.831469 0.555570 0.000000
v -0.815493 0.544895 -0.195090
v -0.768178 0.513280 -0.382683
v -0.691341 0.461939 -0.555570
v -0.587938 0.392847 -0.707107
v -0.461940 0.308658 -0.831470
v -0.318189 0.212607 -0.923880
v -0.162212 0.108386 -0.980785
v -0.137950 0.137949 0.980785
v -0.270598 0.270598 0.923880
v -0.392847 0.392847 0.831470
v -0.500000 0.500000 0.707107
v -0.587937 0.587937 0.555570
v -0.653281 0.653281 0.382683
v -0.693519 0.693519 0.195090
v -0.707106 0.707106 0.000000
v -0.693519 0.693519 -0.195090
v -0.653281 0.653281 -0.382683
v -0.587937 0.587937 -0.555570
v -0.500000 0.500000 -0.707107
v -0.392847 0.392847 -0.831470
v -0.270598 0.270598 -0.923880
v -0.137950 0.137949 -0.980785
vt 0.000000 0.000000
vt 1.000000 1.000000
vt 0.000000 1.000000
vt 1.000000 0.000000
vt 0.000000 1.000000
vt 0.000000 0.000000
vt 0.000000 0.000000
vt 1.000000 1.000000
vt 0.000000 1.000000
vt 1.000000 0.000000
vt 0.000000 1.000000
vt 0.000000 0.000000
vt 1.000000 0.000000
vt 0.000000 1.000000
vt 0.000000 0.000000
vt 0.000000 0.000000
vt 1.000000 1.000000
vt 0.000000 1.000000
vt 0.000000 0.000000
vt 1.000000 1.000000
vt 0.000000 1.000000
vt 1.000000 0.000000
vt 0.000000 1.000000
vt 0.000000 0.000000
vt 1.000000 0.000000
vt 0.000000 1.000000
vt 0.000000 0.000000
vt 0.000000 0.000000
vt 1.000000 0.000000
vt 1.000000 1.000000
vt 0.000000 0.000000
vt 1.000000 0.000000
vt 1.000000 1.000000
vt 1.000000 0.000000
vt 0.000000 1.000000
vt 0.000000 0.000000
vt 1.000000 0.000000
vt 0.000000 1.000000
vt 0.000000 0.000000
vt 1.000000 0.000000
vt 0.000000 1.000000
vt 0.000000 0.000000
vt 1.000000 0.000000
vt 0.000000 1.000000
vt 0.000000 0.000000
vt 0.000000 0.000000
vt 1.000000 1.000000
vt 0.000000 1.000000
vt 1.000000 0.000000
vt 0.000000 1.000000
vt 0.000000 0.000000
vt 0.000000 0.000000
vt 1.000000 1.000000
vt 1.000000 0.000000
vt 1.000000 1.000000
vt 1.000000 0.000000
vt 0.000000 1.000000
vt 0.000000 0.000000
vt 1.000000 0.000000
vt 0.000000 1.000000
vt 0.000000 0.000000
vt 1.000000 0.000000
vt 0.000000 1.000000
vt 0.000000 0.000000
vt 1.000000 0.000000
vt 0.000000 1.000000
vt 0.000000 0.000000
vt 0.000000 0.000000
vt 1.000000 1.000000
vt 0.000000 1.000000
vt 0.000000 0.000000
vt 1.000000 1.000000
vt 0.000000 1.000000
vt 0.000000 0.000000
vt 1.000000 1.000000
vt 0.000000 1.000000
vt 0.000000 0.000000
vt 1.000000 1.000000
vt 0.000000 1.000000
vt 1.000000 0.000000
vt 0.000000 1.000000
vt 0.000000 0.000000
vt 1.000000 0.000000
vt 0.000000 1.000000
vt 0.000000 0.000000
vt 0.000000 0.000000
vt 1.000000 1.000000
vt 0.000000 1.000000
vt 0.000000 0.000000
vt 1.000000 1.000000
vt 0.000000 1.000000
vt 0.000000 0.000000
vt 1.000000 1.000000
vt 0.000000 1.000000
vt 1.000000 0.000000
vt 0.000000 1.000000
vt 0.000000 0.000000
vt 0.000000 0.000000
vt 1.000000 1.000000
vt 0.000000 1.000000
vt 1.000000 0.000000
vt 0.000000 1.000000
vt 0.000000 0.000000
vt 1.000000 0.000000
vt 0.000000 1.000000
vt 0.000000 0.000000
vt 0.000000 0.000000
vt 1.000000 1.000000
vt 0.000000 1.000000
vt 0.000000 0.000000
vt 1.000000 1.000000
vt 0.000000 1.000000
vt 1.000000 0.000000
vt 0.000000 1.000000
vt 0.000000 0.000000
vt 1.000000 0.000000
vt 0.000000 1.000000
vt 0.000000 0.000000
vt 0.000000 0.000000
vt 1.000000 1.000000
vt 1.000000 0.000000
vt 1.000000 1.000000
vt 1.000000 0.000000
vt 0.000000 1.000000
vt 0.000000 0.000000
vt 0.000000 0.000000
vt 0.000000 1.000000
vt 1.000000 0.000000
vt 0.000000 1.000000
vt 0.000000 0.000000
vt 1.000000 0.000000
vt 0.000000 1.000000
vt 0.000000 0.000000
vt 0.000000 0.000000
vt 1.000000 1.000000
vt 0.000000 1.000000
vt 0.000000 0.000000
vt 1.000000 1.000000
vt 0.000000 1.000000
vt 0.000000 0.000000
vt 1.000000 1.000000
vt 1.000000 0.000000
vt 1.000000 1.000000
vt 0.000000 0.000000
vt 1.000000 1.000000
vt 0.000000 1.000000
vt 0.000000 0.000000
vt 0.000000 1.000000
vt 1.000000 0.000000
vt 0.000000 1.000000
vt 0.000000 0.000000
vt 1.000000 0.000000
vt 0.000000 1.000000
vt 0.000000 0.000000
vt 0.000000 0.000000
vt 1.000000 1.000000
vt 0.000000 1.000000
vt 0.000000 0.000000
vt 1.000000 1.000000
vt 0.000000 1.000000
vt 1.000000 0.000000
vt 0.000000 1.000000
vt 0.000000 0.000000
vt 1.000000 0.000000
vt 0.000000 1.000000
vt 0.000000 0.000000
vt 0.000000 0.000000
vt 1.000000 1.000000
vt 0.000000 1.000000
vt 1.000000 0.000000
vt 0.000000 1.000000
vt 0.000000 0.000000
vt 0.000000 0.000000
vt 1.000000 1.000000
vt 0.000000 1.000000
vt 0.000000 0.000000
vt 1.000000 1.000000
vt 0.000000 1.000000
vt 1.000000 0.000000
vt 0.000000 1.000000
vt 0.000000 0.000000
vt 1.000000 0.000000
vt 0.000000 1.000000
vt 0.000000 0.000000
vt 0.000000 0.000000
vt 1.000000 1.000000
vt 0.000000 1.000000
vt 1.000000 0.000000
vt 0.000000 1.000000
vt 0.000000 0.000000
vt 1.000000 0.000000
vt 0.000000 1.000000
vt 0.000000 0.000000
vt 0.000000 0.000000
vt 1.000000 1.000000
vt 0.000000 1.000000
vt 0.000000 0.000000
vt 1.000000 1.000000
vt 0.000000 1.000000
vt 1.000000 0.000000
vt 0.000000 1.000000
vt 0.000000 0.000000
vt 1.000000 0.000000
vt 0.000000 1.000000
vt 0.000000 0.000000
vt 0.000000 0.000000
vt 1.000000 1.000000
vt 1.000000 0.000000
vt 1.000000 1.000000
vt 0.000000 0.000000
vt 1.000000 1.000000
vt 0.000000 1.000000
vt 0.000000 0.000000
vt 0.000000 1.000000
vt 1.000000 0.000000
vt 0.000000 1.000000
vt 0.000000 0.000000
vt 1.000000 0.000000
vt 0.000000 1.000000
vt 0.000000 0.000000
vt 0.000000 0.000000
vt 1.000000 1.000000
vt 0.000000 1.000000
vt 0.000000 0.000000
vt 1.000000 1.000000
vt 0.000000 1.000000
vt 1.000000 0.000000
vt 0.000000 1.000000
vt 0.000000 0.000000
vt 1.000000 0.000000
vt 0.000000 1.000000
vt 0.000000 0.000000
vt 1.000000 0.000000
vt 0.000000 1.000000
vt 0.000000 0.000000
vt 1.000000 0.000000
vt 0.000000 1.000000
vt 0.000000 0.000000
vt 1.000000 0.000000
vt 0.000000 1.000000
vt 0.000000 0.000000
vt 0.000000 0.000000
vt 1.000000 1.000000
vt 0.000000 1.000000
vt 0.000000 0.000000
vt 1.000000 1.000000
vt 0.000000 1.000000
vt 1.000000 0.000000
vt 0.000000 1.000000
vt 0.000000 0.000000
vt 1.000000 0.000000
vt 0.000000 1.000000
vt 0.000000 0.000000
vt 1.000000 0.000000
vt 0.000000 1.000000
vt 0.000000 0.000000
vt 1.000000 0.000000
vt 0.000000 1.000000
vt 0.000000 0.000000
vt 0.000000 0.000000
vt 1.000000 1.000000
vt 0.000000 1.000000
vt 0.000000 0.000000
vt 1.000000 1.000000
vt 0.000000 1.000000
vt 1.000000 0.000000
vt 0.000000 1.000000
vt 0.000000 0.000000
vt 1.000000 0.000000
vt 0.000000 1.000000
vt 0.000000 0.000000
vt 0.000000 0.000000
vt 1.000000 1.000000
vt 1.000000 0.000000
vt 1.000000 1.000000
vt 1.000000 0.000000
vt 0.000000 1.000000
vt 0.000000 0.000000
vt 1.000000 0.000000
vt 0.000000 1.000000
vt 0.000000 0.000000
vt 0.000000 0.000000
vt 1.000000 1.000000
vt 0.000000 1.000000
vt 0.000000 0.000000
vt 1.000000 1.000000
vt 0.000000 1.000000
vt 1.000000 0.000000
vt 0.000000 1.000000
vt 0.000000 0.000000
vt 1.000000 0.000000
vt 0.000000 1.000000
vt 0.000000 0.000000
vt 0.000000 0.000000
vt 1.000000 1.000000
vt 1.000000 0.000000
vt 1.000000 1.000000
vt 0.000000 0.000000
vt 1.000000 1.000000
vt 0.000000 1.000000
vt 1.000000 0.000000
vt 0.000000 1.000000
vt 0.000000 0.000000
vt 1.000000 0.000000
vt 0.000000 1.000000
vt 0.000000 0.000000
vt 0.000000 0.000000
vt 1.000000 1.000000
vt 0.000000 1.000000
vt 0.000000 0.000000
vt 1.000000 1.000000
vt 0.000000 1.000000
vt 0.000000 0.000000
vt 1.000000 1.000000
vt 0.000000 1.000000
vt 1.000000 0.000000
vt 0.000000 1.000000
vt 0.000000 0.000000
vt 0.000000 0.000000
vt 1.000000 1.000000
vt 0.000000 1.000000
vt 1.000000 0.000000
vt 0.000000 1.000000
vt 0.000000 0.000000
vt 1.000000 0.000000
vt 0.000000 1.000000
vt 0.000000 0.000000
vt 0.000000 0.000000
vt 1.000000 1.000000
vt 0.000000 1.000000
vt 1.000000 0.000000
vt 0.000000 1.000000
vt 0.000000 0.000000
vt 1.000000 0.000000
vt 0.000000 1.000000
vt 0.000000 0.000000
vt 0.000000 0.000000
vt 1.000000 1.000000
vt 0.000000 1.000000
vt 1.000000 0.000000
vt 0.000000 1.000000
vt 0.000000 0.000000
vt 1.000000 0.000000
vt 0.000000 1.000000
vt 0.000000 0.000000
vt 1.000000 0.000000
vt 0.000000 1.000000
vt 0.000000 0.000000
vt 0.000000 0.000000
vt 1.000000 1.000000
vt 0.000000 1.000000
vt 1.000000 0.000000
vt 0.000000 1.000000
vt 0.000000 0.000000
vt 1.000000 0.000000
vt 0.000000 1.000000
vt 0.000000 0.000000
vt 0.000000 0.000000
vt 1.000000 1.000000
vt 1.000000 0.000000
vt 1.000000 1.000000
vt 0.000000 0.000000
vt 1.000000 1.000000
vt 0.000000 1.000000
vt 1.000000 0.000000
vt 0.000000 1.000000
vt 0.000000 0.000000
vt 1.000000 1.000000
vt 1.000000 1.000000
vt 1.000000 0.000000
vt 1.000000 1.000000
vt 1.000000 0.000000
vt 1.000000 1.000000
vt 1.000000 1.000000
vt 1.000000 0.000000
vt 1.000000 0.000000
vt 1.000000 1.000000
vt 1.000000 1.000000
vt 1.000000 1.000000
vt 1.000000 1.000000
vt 1.000000 1.000000
vt 1.000000 0.000000
vt 1.000000 1.000000
vt 1.000000 1.000000
vt 1.000000 1.000000
vt 1.000000 1.000000
vt 1.000000 0.000000
vt 1.000000 0.000000
vt 1.000000 0.000000
vt 1.000000 0.000000
vt 1.000000 1.000000
vt 1.000000 1.000000
vt 1.000000 0.000000
vt 1.000000 0.000000
vt 1.000000 0.000000
vt 1.000000 1.000000
vt 1.000000 0.000000
vt 1.000000 1.000000
vt 1.000000 1.000000
vt 1.000000 0.000000
vt 1.000000 0.000000
vt 1.000000 1.000000
vt 1.000000 1.000000
vt 1.000000 1.000000
vt 1.000000 0.000000
vt 1.000000 1.000000
vt 1.000000 1.000000
vt 1.000000 0.000000
vt 1.000000 0.000000
vt 1.000000 0.000000
vt 1.000000 0.000000
vt 1.000000 1.000000
vt 1.000000 1.000000
vt 1.000000 0.000000
vt 1.000000 0.000000
vt 1.000000 1.000000
vt 1.000000 1.000000
vt 1.000000 0.000000
vt 1.000000 1.000000
vt 1.000000 0.000000
vt 1.000000 0.000000
vt 1.000000 1.000000
vt 1.000000 1.000000
vt 1.000000 0.000000
vt 1.000000 1.000000
vt 1.000000 1.000000
vt 1.000000 0.000000
vt 1.000000 0.000000
vt 1.000000 1.000000
vt 1.000000 1.000000
vt 1.000000 0.000000
vt 1.000000 0.000000
vt 1.000000 1.000000
vt 1.000000 1.000000
vt 1.000000 0.000000
vt 1.000000 0.000000
vt 1.000000 1.000000
vt 1.000000 1.000000
vt 1.000000 1.000000
vt 1.000000 1.000000
vt 1.000000 0.000000
vt 1.000000 0.000000
vt 1.000000 1.000000
vt 1.000000 1.000000
vt 1.000000 1.000000
vt 1.000000 1.000000
vt 1.000000 0.000000
vt 1.000000 0.000000
vt 1.000000 1.000000
vt 1.000000 1.000000
vt 1.000000 1.000000
vt 1.000000 1.000000
vt 1.000000 0.000000
vt 1.000000 0.000000
vt 1.000000 1.000000
vt 1.000000 1.000000
vt 1.000000 0.000000
vt 1.000000 1.000000
vt 1.000000 0.000000
vt 1.000000 0.000000
vt 1.000000 0.000000
vt 1.000000 1.000000
vt 1.000000 0.000000
vt 1.000000 1.000000
vt 1.000000 0.000000
vt 1.000000 1.000000
vt 1.000000 1.000000
vt 1.000000 0.000000
vt 1.000000 1.000000
vt 1.000000 1.000000
vt 1.000000 0.000000
vt 1.000000 1.000000
vt 1.000000 1.000000
vt 1.000000 0.000000
vn -0.4918 -0.4036 0.7715
vn -0.5987 -0.4913 -0.6326
vn -0.5987 -0.4913 0.6326
vn -0.4918 -0.4036 -0.7715
vn -0.6825 -0.5601 0.4696
vn -0.3658 -0.3002 -0.8810
vn -0.7400 -0.6073 0.2890
vn -0.2254 -0.1850 -0.9565
vn -0.7693 -0.6314 0.0976
vn -0.0761 -0.0625 0.9951
vn -0.0761 -0.0625 -0.9951
vn -0.7693 -0.6314 -0.0976
vn -0.2254 -0.1850 0.9565
vn -0.7400 -0.6073 -0.2890
vn -0.3658 -0.3002 0.8810
vn -0.6825 -0.5601 -0.4696
vn -0.8777 -0.4691 0.0976
vn -0.0869 -0.0464 0.9951
vn -0.0869 -0.0464 -0.9951
vn -0.8777 -0.4691 -0.0976
vn -0.2571 -0.1374 0.9565
vn -0.8443 -0.4513 -0.2890
vn -0.4173 -0.2230 0.8810
vn -0.7786 -0.4162 -0.4696
vn -0.5611 -0.2999 0.7715
vn -0.6831 -0.3651 -0.6326
vn -0.6831 -0.3651 0.6326
vn -0.5611 -0.2999 -0.7715
vn -0.7786 -0.4162 0.4696
vn -0.4173 -0.2230 -0.8810
vn -0.8443 -0.4513 0.2890
vn -0.2571 -0.1374 -0.9566
vn -0.7412 -0.2248 -0.6326
vn -0.7412 -0.2248 0.6326
vn -0.6088 -0.1847 -0.7715
vn -0.8448 -0.2563 0.4696
vn -0.4528 -0.1374 -0.8810
vn -0.9161 -0.2779 0.2890
vn -0.2790 -0.0846 -0.9565
vn -0.9524 -0.2889 0.0976
vn -0.0942 -0.0286 0.9951
vn -0.0942 -0.0286 -0.9951
vn -0.9524 -0.2889 -0.0976
vn -0.2790 -0.0846 0.9565
vn -0.9161 -0.2779 -0.2890
vn -0.4528 -0.1374 0.8810
vn -0.8448 -0.2563 -0.4696
vn -0.6088 -0.1847 0.7715
vn -0.0980 -0.0097 0.9951
vn -0.0980 -0.0097 -0.9951
vn -0.9904 -0.0975 -0.0976
vn -0.2902 -0.0286 0.9565
vn -0.9527 -0.0938 -0.2890
vn -0.4709 -0.0464 0.8810
vn -0.8786 -0.0865 -0.4696
vn -0.6332 -0.0624 0.7715
vn -0.7708 -0.0759 -0.6326
vn -0.7708 -0.0759 0.6326
vn -0.6332 -0.0624 -0.7715
vn -0.8786 -0.0865 0.4696
vn -0.4709 -0.0464 -0.8810
vn -0.9527 -0.0938 0.2890
vn -0.2902 -0.0286 -0.9565
vn -0.9904 -0.0975 0.0976
vn -0.7708 0.0759 0.6326
vn -0.6332 0.0624 -0.7715
vn -0.8786 0.0865 0.4696
vn -0.4709 0.0464 -0.8810
vn -0.9527 0.0938 0.2890
vn -0.2902 0.0286 -0.9565
vn -0.9904 0.0976 0.0976
vn -0.0980 0.0097 0.9951
vn -0.0980 0.0097 -0.9951
vn -0.9904 0.0975 -0.0976
vn -0.2902 0.0286 0.9565
vn -0.9527 0.0938 -0.2890
vn -0.4709 0.0464 0.8810
vn -0.8786 0.0865 -0.4696
vn -0.6332 0.0624 0.7715
vn -0.7708 0.0759 -0.6326
vn -0.9524 0.2889 -0.0976
vn -0.2790 0.0846 0.9565
vn -0.9161 0.2779 -0.2890
vn -0.4528 0.1374 0.8810
vn -0.8448 0.2563 -0.4696
vn -0.6088 0.1847 0.7715
vn -0.7412 0.2248 -0.6326
vn -0.7412 0.2248 0.6326
vn -0.6088 0.1847 -0.7715
vn -0.8448 0.2563 0.4696
vn -0.4528 0.1374 -0.8810
vn -0.9161 0.2779 0.2890
vn -0.2790 0.0846 -0.9565
vn -0.9524 0.2889 0.0976
vn -0.0942 0.0286 0.9951
vn -0.0942 0.0286 -0.9951
vn -0.5611 0.2999 -0.7715
vn -0.7786 0.4162 0.4696
vn -0.4173 0.2231 -0.8810
vn -0.8443 0.4513 0.2890
vn -0.2571 0.1374 -0.9565
vn -0.8777 0.4691 0.0976
vn -0.0869 0.0464 0.9951
vn -0.0869 0.0464 -0.9951
vn -0.8777 0.4691 -0.0976
vn -0.2571 0.1374 0.9565
vn -0.8443 0.4513 -0.2890
vn -0.4173 0.2230 0.8810
vn -0.7786 0.4162 -0.4696
vn -0.5611 0.2999 0.7715
vn -0.6831 0.3651 -0.6326
vn -0.6831 0.3651 0.6326
vn -0.7400 0.6073 -0.2890
vn -0.3658 0.3002 0.8810
vn -0.6825 0.5601 -0.4696
vn -0.4918 0.4036 0.7715
vn -0.5987 0.4913 -0.6326
vn -0.5987 0.4913 0.6326
vn -0.4918 0.4036 -0.7715
vn -0.6825 0.5601 0.4696
vn -0.3658 0.3002 -0.8810
vn -0.7400 0.6073 0.2890
vn -0.2254 0.1850 -0.9565
vn -0.7693 0.6314 0.0976
vn -0.0761 0.0625 0.9951
vn -0.0761 0.0625 -0.9951
vn -0.7693 0.6314 -0.0976
vn -0.2254 0.1850 0.9565
vn 0.7071 -0.7071 0.0000
vn 0.7071 0.7071 -0.0000
vn -0.2571 -0.1374 -0.9565
vn -0.9904 0.0975 0.0976
vn -0.9904 0.0976 -0.0976
vn -0.2571 0.1374 0.9566
vn -0.4173 0.2231 0.8810
usemtl None
s off
f 6/1/1 20/2/1 21/3/1
f 13/4/2 29/5/2 14/6/2
f 7/7/3 21/8/3 22/9/3
f 14/10/4 30/11/4 15/12/4
f 7/13/5 23/14/5 8/15/5
f 16/16/6 30/17/6 31/18/6
f 9/19/7 23/20/7 24/21/7
f 16/22/8 32/23/8 17/24/8
f 9/25/9 25/26/9 10/27/9
f 3/28/10 2/29/10 18/30/10
f 1/31/11 17/32/11 32/33/11
f 10/34/12 26/35/12 11/36/12
f 3/37/13 19/38/13 4/39/13
f 11/40/14 27/41/14 12/42/14
f 4/43/15 20/44/15 5/45/15
f 13/46/16 27/47/16 28/48/16
f 24/49/17 40/50/17 25/51/17
f 18/52/18 2/29/18 33/53/18
f 1/31/19 32/54/19 47/55/19
f 25/56/20 41/57/20 26/58/20
f 18/59/21 34/60/21 19/61/21
f 26/62/22 42/63/22 27/64/22
f 19/65/23 35/66/23 20/67/23
f 28/68/24 42/69/24 43/70/24
f 21/71/25 35/72/25 36/73/25
f 29/74/26 43/75/26 44/76/26
f 22/77/27 36/78/27 37/79/27
f 29/80/28 45/81/28 30/82/28
f 22/83/29 38/84/29 23/85/29
f 31/86/30 45/87/30 46/88/30
f 24/89/31 38/90/31 39/91/31
f 32/92/32 46/93/32 47/94/32
f 43/95/33 59/96/33 44/97/33
f 37/98/34 51/99/34 52/100/34
f 44/101/35 60/102/35 45/103/35
f 37/104/36 53/105/36 38/106/36
f 46/107/37 60/108/37 61/109/37
f 39/110/38 53/111/38 54/112/38
f 46/113/39 62/114/39 47/115/39
f 39/116/40 55/117/40 40/118/40
f 33/119/41 2/29/41 48/120/41
f 1/31/42 47/121/42 62/122/42
f 40/123/43 56/124/43 41/125/43
f 34/126/44 48/120/44 49/127/44
f 41/128/45 57/129/45 42/130/45
f 34/131/46 50/132/46 35/133/46
f 43/134/47 57/135/47 58/136/47
f 36/137/48 50/138/48 51/139/48
f 48/140/49 2/29/49 63/141/49
f 1/31/50 62/142/50 77/143/50
f 56/144/51 70/145/51 71/146/51
f 49/147/52 63/141/52 64/148/52
f 56/149/53 72/150/53 57/151/53
f 49/152/54 65/153/54 50/154/54
f 58/155/55 72/156/55 73/157/55
f 51/158/56 65/159/56 66/160/56
f 58/161/57 74/162/57 59/163/57
f 51/164/58 67/165/58 52/166/58
f 60/167/59 74/168/59 75/169/59
f 52/170/60 68/171/60 53/172/60
f 61/173/61 75/174/61 76/175/61
f 54/176/62 68/177/62 69/178/62
f 61/179/63 77/180/63 62/181/63
f 54/182/64 70/183/64 55/184/64
f 67/185/65 81/186/65 82/187/65
f 74/188/66 90/189/66 75/190/66
f 67/191/67 83/192/67 68/193/67
f 76/194/68 90/195/68 91/196/68
f 69/197/69 83/198/69 84/199/69
f 76/200/70 92/201/70 77/202/70
f 69/203/71 85/204/71 70/205/71
f 63/206/72 2/29/72 78/207/72
f 1/31/73 77/208/73 92/209/73
f 71/210/74 85/211/74 86/212/74
f 64/213/75 78/207/75 79/214/75
f 71/215/76 87/216/76 72/217/76
f 64/218/77 80/219/77 65/220/77
f 73/221/78 87/222/78 88/223/78
f 66/224/79 80/225/79 81/226/79
f 73/227/80 89/228/80 74/229/80
f 85/230/81 101/231/81 86/232/81
f 78/233/82 94/234/82 79/235/82
f 86/236/83 102/237/83 87/238/83
f 79/239/84 95/240/84 80/241/84
f 88/242/85 102/243/85 103/244/85
f 81/245/86 95/246/86 96/247/86
f 88/248/87 104/249/87 89/250/87
f 81/251/88 97/252/88 82/253/88
f 89/254/89 105/255/89 90/256/89
f 82/257/90 98/258/90 83/259/90
f 91/260/91 105/261/91 106/262/91
f 84/263/92 98/264/92 99/265/92
f 91/266/93 107/267/93 92/268/93
f 84/269/94 100/270/94 85/271/94
f 78/272/95 2/29/95 93/273/95
f 1/31/96 92/274/96 107/275/96
f 104/276/97 120/277/97 105/278/97
f 97/279/98 113/280/98 98/281/98
f 106/282/99 120/283/99 121/284/99
f 99/285/100 113/286/100 114/287/100
f 106/288/101 122/289/101 107/290/101
f 99/291/102 115/292/102 100/293/102
f 93/294/103 2/29/103 108/295/103
f 1/31/104 107/296/104 122/297/104
f 101/298/105 115/299/105 116/300/105
f 93/301/106 109/302/106 94/303/106
f 101/304/107 117/305/107 102/306/107
f 95/307/108 109/308/108 110/309/108
f 103/310/109 117/311/109 118/312/109
f 96/313/110 110/314/110 111/315/110
f 103/316/111 119/317/111 104/318/111
f 97/319/112 111/320/112 112/321/112
f 116/322/113 132/323/113 117/324/113
f 109/325/114 125/326/114 110/327/114
f 118/328/115 132/329/115 133/330/115
f 110/331/116 126/332/116 111/333/116
f 118/334/117 134/335/117 119/336/117
f 112/337/118 126/338/118 127/339/118
f 119/340/119 135/341/119 120/342/119
f 112/343/120 128/344/120 113/345/120
f 120/346/121 136/347/121 121/348/121
f 114/349/122 128/350/122 129/351/122
f 121/352/123 137/353/123 122/354/123
f 114/355/124 130/356/124 115/357/124
f 108/358/125 2/29/125 123/359/125
f 1/31/126 122/360/126 137/361/126
f 116/362/127 130/363/127 131/364/127
f 108/365/128 124/366/128 109/367/128
f 17/32/129 3/37/129 11/40/129
f 2/29/130 131/368/130 127/369/130
f 6/1/1 5/370/1 20/2/1
f 13/4/2 28/371/2 29/5/2
f 7/7/3 6/372/3 21/8/3
f 14/10/4 29/373/4 30/11/4
f 7/13/5 22/374/5 23/14/5
f 16/16/6 15/375/6 30/17/6
f 9/19/7 8/376/7 23/20/7
f 16/22/8 31/377/8 32/23/8
f 9/25/9 24/378/9 25/26/9
f 10/34/12 25/379/12 26/35/12
f 3/37/13 18/30/13 19/38/13
f 11/40/14 26/380/14 27/41/14
f 4/43/15 19/381/15 20/44/15
f 13/46/16 12/382/16 27/47/16
f 24/49/17 39/383/17 40/50/17
f 25/56/20 40/384/20 41/57/20
f 18/59/21 33/53/21 34/60/21
f 26/62/22 41/385/22 42/63/22
f 19/65/23 34/386/23 35/66/23
f 28/68/24 27/387/24 42/69/24
f 21/71/25 20/388/25 35/72/25
f 29/74/26 28/389/26 43/75/26
f 22/77/27 21/390/27 36/78/27
f 29/80/28 44/391/28 45/81/28
f 22/83/29 37/392/29 38/84/29
f 31/86/30 30/393/30 45/87/30
f 24/89/31 23/394/31 38/90/31
f 32/92/131 31/395/131 46/93/131
f 43/95/33 58/396/33 59/96/33
f 37/98/34 36/397/34 51/99/34
f 44/101/35 59/398/35 60/102/35
f 37/104/36 52/399/36 53/105/36
f 46/107/37 45/400/37 60/108/37
f 39/110/38 38/401/38 53/111/38
f 46/113/39 61/402/39 62/114/39
f 39/116/40 54/403/40 55/117/40
f 40/123/43 55/404/43 56/124/43
f 34/126/44 33/405/44 48/120/44
f 41/128/45 56/406/45 57/129/45
f 34/131/46 49/407/46 50/132/46
f 43/134/47 42/408/47 57/135/47
f 36/137/48 35/409/48 50/138/48
f 56/144/51 55/410/51 70/145/51
f 49/147/52 48/411/52 63/141/52
f 56/149/53 71/412/53 72/150/53
f 49/152/54 64/413/54 65/153/54
f 58/155/55 57/414/55 72/156/55
f 51/158/56 50/415/56 65/159/56
f 58/161/57 73/416/57 74/162/57
f 51/164/58 66/417/58 67/165/58
f 60/167/59 59/418/59 74/168/59
f 52/170/60 67/419/60 68/171/60
f 61/173/61 60/420/61 75/174/61
f 54/176/62 53/421/62 68/177/62
f 61/179/63 76/422/63 77/180/63
f 54/182/64 69/423/64 70/183/64
f 67/185/65 66/424/65 81/186/65
f 74/188/66 89/425/66 90/189/66
f 67/191/67 82/426/67 83/192/67
f 76/194/68 75/427/68 90/195/68
f 69/197/69 68/428/69 83/198/69
f 76/200/70 91/429/70 92/201/70
f 69/203/132 84/430/132 85/204/132
f 71/210/133 70/431/133 85/211/133
f 64/213/75 63/432/75 78/207/75
f 71/215/76 86/433/76 87/216/76
f 64/218/77 79/434/77 80/219/77
f 73/221/78 72/435/78 87/222/78
f 66/224/79 65/436/79 80/225/79
f 73/227/80 88/437/80 89/228/80
f 85/230/81 100/438/81 101/231/81
f 78/233/82 93/273/82 94/234/82
f 86/236/83 101/439/83 102/237/83
f 79/239/84 94/440/84 95/240/84
f 88/242/85 87/441/85 102/243/85
f 81/245/86 80/442/86 95/246/86
f 88/248/87 103/443/87 104/249/87
f 81/251/88 96/444/88 97/252/88
f 89/254/89 104/445/89 105/255/89
f 82/257/90 97/446/90 98/258/90
f 91/260/91 90/447/91 105/261/91
f 84/263/92 83/448/92 98/264/92
f 91/266/93 106/449/93 107/267/93
f 84/269/94 99/450/94 100/270/94
f 104/276/97 119/451/97 120/277/97
f 97/279/98 112/452/98 113/280/98
f 106/282/99 105/453/99 120/283/99
f 99/285/100 98/454/100 113/286/100
f 106/288/101 121/455/101 122/289/101
f 99/291/102 114/456/102 115/292/102
f 101/298/105 100/457/105 115/299/105
f 93/301/134 108/295/134 109/302/134
f 101/304/107 116/458/107 117/305/107
f 95/307/135 94/459/135 109/308/135
f 103/310/109 102/460/109 117/311/109
f 96/313/110 95/461/110 110/314/110
f 103/316/111 118/462/111 119/317/111
f 97/319/112 96/463/112 111/320/112
f 116/322/113 131/368/113 132/323/113
f 109/325/114 124/464/114 125/326/114
f 118/328/115 117/465/115 132/329/115
f 110/331/116 125/466/116 126/332/116
f 118/334/117 133/467/117 134/335/117
f 112/337/118 111/468/118 126/338/118
f 119/340/119 134/469/119 135/341/119
f 112/343/120 127/369/120 128/344/120
f 120/346/121 135/470/121 136/347/121
f 114/349/122 113/471/122 128/350/122
f 121/352/123 136/472/123 137/353/123
f 114/355/124 129/473/124 130/356/124
f 116/362/127 115/474/127 130/363/127
f 108/365/128 123/359/128 124/366/128
f 1/31/129 2/29/129 17/32/129
f 2/29/129 3/37/129 17/32/129
f 3/37/129 4/43/129 7/13/129
f 4/43/129 5/370/129 7/13/129
f 5/370/129 6/372/129 7/13/129
f 7/13/129 8/376/129 9/25/129
f 9/25/129 10/34/129 11/40/129
f 11/40/129 12/382/129 13/4/129
f 13/4/129 14/10/129 15/375/129
f 15/375/129 16/22/129 17/32/129
f 7/13/129 9/25/129 3/37/129
f 9/25/129 11/40/129 3/37/129
f 11/40/129 13/4/129 15/375/129
f 15/375/129 17/32/129 11/40/129
f 124/464/130 123/359/130 2/29/130
f 2/29/130 1/31/130 137/361/130
f 137/361/130 136/472/130 135/470/130
f 135/470/130 134/469/130 133/467/130
f 133/467/130 132/329/130 131/368/130
f 131/368/130 130/363/130 129/473/130
f 129/473/130 128/350/130 127/369/130
f 127/369/130 126/338/130 125/466/130
f 125/466/130 124/464/130 127/369/130
f 124/464/130 2/29/130 127/369/130
f 2/29/130 137/361/130 131/368/130
f 137/361/130 135/470/130 131/368/130
f 135/470/130 133/467/130 131/368/130
f 131/368/130 129/473/130 127/369/130
