# Blender v2.79 (sub 0) OBJ File: 'Pacman.blend'
# www.blender.org
mtllib PacMan1.mtl
o Sphere.001_Sphere.006
v 0.000000 0.195090 0.980785
v 0.000000 0.382683 0.923880
v 0.000000 0.555570 0.831470
v 0.000000 0.707107 0.707107
v 0.000000 0.831470 0.555570
v 0.000000 0.923880 0.382683
v 0.000000 0.980785 0.195090
v 0.000000 1.000000 0.000000
v 0.000000 0.980785 -0.195090
v 0.000000 0.555570 -0.831470
v 0.038060 0.191342 0.980785
v 0.074658 0.375330 0.923880
v 0.108386 0.544895 0.831470
v 0.137950 0.693520 0.707107
v 0.162212 0.815493 0.555570
v 0.180240 0.906127 0.382683
v 0.191342 0.961940 0.195090
v 0.195090 0.980785 0.000000
v 0.191342 0.961940 -0.195090
v 0.180240 0.906127 -0.382683
v 0.162212 0.815493 -0.555570
v 0.137950 0.693520 -0.707107
v 0.108386 0.544895 -0.831470
v 0.074658 0.375330 -0.923880
v 0.038060 0.191341 -0.980785
v 0.074658 0.180240 0.980785
v 0.146447 0.353553 0.923880
v 0.212608 0.513280 0.831470
v 0.270598 0.653281 0.707107
v 0.318190 0.768178 0.555570
v 0.353553 0.853553 0.382683
v 0.375330 0.906127 0.195090
v 0.382684 0.923879 0.000000
v 0.375330 0.906127 -0.195090
v 0.353554 0.853553 -0.382683
v 0.318190 0.768178 -0.555570
v 0.270598 0.653281 -0.707107
v 0.212608 0.513280 -0.831470
v 0.146447 0.353553 -0.923880
v 0.074658 0.180240 -0.980785
v 0.108387 0.162212 0.980785
v 0.212608 0.318190 0.923880
v 0.308658 0.461940 0.831470
v 0.392848 0.587938 0.707107
v 0.461940 0.691342 0.555570
v 0.513280 0.768178 0.382683
v 0.544895 0.815493 0.195090
v 0.555570 0.831469 0.000000
v 0.544895 0.815493 -0.195090
v 0.513280 0.768178 -0.382683
v 0.461940 0.691342 -0.555570
v 0.392848 0.587938 -0.707107
v 0.308658 0.461940 -0.831470
v 0.212608 0.318189 -0.923880
v 0.108386 0.162211 -0.980785
v 0.137950 0.137950 0.980785
v 0.270598 0.270598 0.923880
v 0.392848 0.392847 0.831470
v 0.500000 0.500000 0.707107
v 0.587938 0.587938 0.555570
v 0.653282 0.653281 0.382683
v 0.693520 0.693520 0.195090
v 0.707107 0.707107 0.000000
v 0.693520 0.693520 -0.195090
v 0.653282 0.653281 -0.382683
v 0.587938 0.587938 -0.555570
v 0.500000 0.500000 -0.707107
v 0.392848 0.392847 -0.831470
v 0.270598 0.270598 -0.923880
v 0.137950 0.137949 -0.980785
v 0.162212 0.108386 0.980785
v 0.318190 0.212607 0.923880
v 0.461940 0.308658 0.831470
v 0.587938 0.392847 0.707107
v 0.691342 0.461940 0.555570
v 0.768178 0.513280 0.382683
v 0.815493 0.544895 0.195090
v 0.831470 0.555570 0.000000
v 0.815493 0.544895 -0.195090
v 0.768178 0.513280 -0.382683
v 0.691342 0.461940 -0.555570
v 0.587938 0.392847 -0.707107
v 0.461940 0.308658 -0.831470
v 0.318190 0.212607 -0.923880
v 0.162212 0.108386 -0.980785
v -0.000000 -0.000001 1.000000
v 0.000000 -0.000000 -1.000000
v 0.162212 -0.108387 -0.980785
v 0.318190 -0.212608 -0.923880
v 0.461940 -0.308659 -0.831470
v 0.587938 -0.392848 -0.707107
v 0.691342 -0.461940 -0.555570
v 0.768178 -0.513280 -0.382683
v 0.815493 -0.544895 -0.195090
v 0.831470 -0.555571 0.000000
v 0.815493 -0.544895 0.195090
v 0.768178 -0.513280 0.382683
v 0.691342 -0.461940 0.555570
v 0.587938 -0.392848 0.707107
v 0.461940 -0.308659 0.831470
v 0.318190 -0.212608 0.923880
v 0.162212 -0.108387 0.980785
v 0.162212 -0.108387 0.980785
v 0.318190 -0.212608 0.923880
v 0.461940 -0.308659 0.831470
v 0.587938 -0.392848 0.707107
v 0.691342 -0.461940 0.555570
v 0.768178 -0.513280 0.382683
v 0.815493 -0.544895 0.195090
v 0.831470 -0.555571 0.000000
v 0.815493 -0.544895 -0.195090
v 0.768178 -0.513280 -0.382683
v 0.691342 -0.461940 -0.555570
v 0.587938 -0.392848 -0.707107
v 0.461940 -0.308659 -0.831470
v 0.318190 -0.212608 -0.923880
v 0.162212 -0.108387 -0.980785
v 0.137950 -0.137950 0.980785
v 0.270598 -0.270599 0.923880
v 0.392848 -0.392848 0.831470
v 0.500000 -0.500000 0.707107
v 0.587938 -0.587938 0.555570
v 0.653282 -0.653282 0.382683
v 0.693520 -0.693520 0.195090
v 0.707107 -0.707107 0.000000
v 0.693520 -0.693520 -0.195090
v 0.653282 -0.653282 -0.382683
v 0.587938 -0.587938 -0.555570
v 0.500000 -0.500000 -0.707107
v 0.392848 -0.392848 -0.831470
v 0.270598 -0.270598 -0.923880
v 0.137950 -0.137950 -0.980785
v 0.108386 -0.162212 0.980785
v 0.212608 -0.318190 0.923880
v 0.308658 -0.461940 0.831470
v 0.392848 -0.587938 0.707107
v 0.461940 -0.691342 0.555570
v 0.513280 -0.768178 0.382683
v 0.544895 -0.815493 0.195090
v 0.555570 -0.831470 0.000000
v 0.544895 -0.815493 -0.195090
v 0.513280 -0.768178 -0.382683
v 0.461940 -0.691342 -0.555570
v 0.392848 -0.587938 -0.707107
v 0.308658 -0.461940 -0.831470
v 0.212608 -0.318190 -0.923880
v 0.108386 -0.162212 -0.980785
v 0.000000 -0.000000 -1.000000
v 0.074658 -0.180240 0.980785
v 0.146447 -0.353554 0.923880
v 0.212608 -0.513280 0.831470
v 0.270598 -0.653282 0.707107
v 0.318190 -0.768178 0.555570
v 0.353553 -0.853554 0.382683
v 0.375330 -0.906128 0.195090
v 0.382683 -0.923880 0.000000
v 0.375330 -0.906128 -0.195090
v 0.353553 -0.853554 -0.382683
v 0.318190 -0.768178 -0.555570
v 0.270598 -0.653282 -0.707107
v 0.212608 -0.513280 -0.831470
v 0.146447 -0.353554 -0.923880
v 0.074658 -0.180240 -0.980785
v 0.038060 -0.191342 0.980785
v 0.074658 -0.375331 0.923880
v 0.108386 -0.544896 0.831470
v 0.137950 -0.693520 0.707107
v 0.162212 -0.815493 0.555570
v 0.180240 -0.906128 0.382683
v 0.191342 -0.961940 0.195090
v 0.195090 -0.980786 0.000000
v 0.191342 -0.961940 -0.195090
v 0.180240 -0.906128 -0.382683
v 0.162212 -0.815493 -0.555570
v 0.137950 -0.693520 -0.707107
v 0.108386 -0.544895 -0.831470
v 0.074658 -0.375331 -0.923880
v 0.038060 -0.191342 -0.980785
v -0.000000 -0.195091 0.980785
v 0.000000 -0.382684 0.923880
v 0.000000 -0.555571 0.831470
v -0.000000 -0.707107 0.707107
v -0.000000 -0.831470 0.555570
v 0.000000 -0.923880 0.382683
v -0.000000 -0.980785 0.195090
v -0.000000 -1.000000 0.000000
v -0.000000 -0.980785 -0.195090
v 0.000000 -0.923880 -0.382683
v -0.000000 -0.831470 -0.555570
v -0.000000 -0.707107 -0.707107
v -0.000000 -0.555570 -0.831470
v 0.000000 -0.382684 -0.923880
v 0.000000 -0.195091 -0.980785
v -0.038060 -0.191342 0.980785
v -0.074658 -0.375331 0.923880
v -0.108386 -0.544896 0.831470
v -0.137950 -0.693520 0.707107
v -0.162212 -0.815493 0.555570
v -0.180240 -0.906128 0.382683
v -0.191342 -0.961940 0.195090
v -0.195090 -0.980786 0.000000
v -0.191342 -0.961940 -0.195090
v -0.180240 -0.906128 -0.382683
v -0.162212 -0.815493 -0.555570
v -0.137950 -0.693520 -0.707107
v -0.108386 -0.544895 -0.831470
v -0.074658 -0.375331 -0.923880
v -0.038060 -0.191342 -0.980785
v -0.074658 -0.180240 0.980785
v -0.146447 -0.353554 0.923880
v -0.212608 -0.513280 0.831470
v -0.270598 -0.653282 0.707107
v -0.318190 -0.768178 0.555570
v -0.353553 -0.853554 0.382683
v -0.375330 -0.906127 0.195090
v -0.382684 -0.923880 0.000000
v -0.375330 -0.906127 -0.195090
v -0.353553 -0.853554 -0.382683
v -0.318190 -0.768178 -0.555570
v -0.270598 -0.653282 -0.707107
v -0.212608 -0.513280 -0.831470
v -0.146447 -0.353554 -0.923880
v -0.074658 -0.180240 -0.980785
v -0.108386 -0.162212 0.980785
v -0.212608 -0.318190 0.923880
v -0.308658 -0.461940 0.831470
v -0.392847 -0.587938 0.707107
v -0.461940 -0.691342 0.555570
v -0.513280 -0.768178 0.382683
v -0.544895 -0.815493 0.195090
v -0.555570 -0.831470 0.000000
v -0.544895 -0.815493 -0.195090
v -0.513280 -0.768178 -0.382683
v -0.461940 -0.691342 -0.555570
v -0.392847 -0.587938 -0.707107
v -0.308658 -0.461940 -0.831470
v -0.212607 -0.318190 -0.923880
v -0.108386 -0.162212 -0.980785
v -0.000000 -0.000001 1.000000
v -0.137950 -0.137950 0.980785
v -0.270598 -0.270598 0.923880
v -0.392848 -0.392848 0.831470
v -0.500000 -0.500000 0.707107
v -0.587938 -0.587938 0.555570
v -0.653281 -0.653282 0.382683
v -0.693520 -0.693520 0.195090
v -0.707107 -0.707107 0.000000
v -0.693520 -0.693520 -0.195090
v -0.653281 -0.653282 -0.382683
v -0.587938 -0.587938 -0.555570
v -0.500000 -0.500000 -0.707107
v -0.392847 -0.392848 -0.831470
v -0.270598 -0.270598 -0.923880
v -0.137950 -0.137950 -0.980785
v -0.162212 -0.108387 0.980785
v -0.318190 -0.212608 0.923880
v -0.461940 -0.308659 0.831470
v -0.587938 -0.392848 0.707107
v -0.691342 -0.461940 0.555570
v -0.768178 -0.513280 0.382683
v -0.815493 -0.544895 0.195090
v -0.831470 -0.555570 0.000000
v -0.815493 -0.544895 -0.195090
v -0.768178 -0.513280 -0.382683
v -0.691342 -0.461940 -0.555570
v -0.587938 -0.392848 -0.707107
v -0.461940 -0.308658 -0.831470
v -0.318190 -0.212608 -0.923880
v -0.162212 -0.108387 -0.980785
v -0.180240 -0.074658 0.980785
v -0.353553 -0.146447 0.923880
v -0.513280 -0.212608 0.831470
v -0.653281 -0.270598 0.707107
v -0.768177 -0.318190 0.555570
v -0.853553 -0.353554 0.382683
v -0.906127 -0.375330 0.195090
v -0.923880 -0.382684 0.000000
v -0.906127 -0.375330 -0.195090
v -0.853553 -0.353554 -0.382683
v -0.768177 -0.318190 -0.555570
v -0.653281 -0.270598 -0.707107
v -0.513280 -0.212608 -0.831470
v -0.353553 -0.146447 -0.923880
v -0.180240 -0.074658 -0.980785
v -0.191342 -0.038061 0.980785
v -0.375330 -0.074658 0.923880
v -0.544895 -0.108387 0.831470
v -0.693520 -0.137950 0.707107
v -0.815493 -0.162212 0.555570
v -0.906127 -0.180240 0.382683
v -0.961939 -0.191342 0.195090
v -0.980785 -0.195090 0.000000
v -0.961939 -0.191342 -0.195090
v -0.906127 -0.180240 -0.382683
v -0.815493 -0.162212 -0.555570
v -0.693520 -0.137950 -0.707107
v -0.544895 -0.108387 -0.831470
v -0.375330 -0.074658 -0.923880
v -0.191342 -0.038061 -0.980785
v -0.195090 -0.000000 0.980785
v -0.382683 -0.000000 0.923880
v -0.555570 -0.000000 0.831470
v -0.707107 -0.000000 0.707107
v -0.831469 -0.000000 0.555570
v -0.923879 -0.000000 0.382683
v -0.980785 -0.000000 0.195090
v -1.000000 -0.000000 0.000000
v -0.980785 -0.000000 -0.195090
v -0.923879 -0.000000 -0.382683
v -0.831469 -0.000000 -0.555570
v -0.707107 -0.000000 -0.707107
v -0.555570 -0.000000 -0.831470
v -0.382683 -0.000000 -0.923880
v -0.195090 -0.000000 -0.980785
v -0.191342 0.038060 0.980785
v -0.375330 0.074658 0.923880
v -0.544895 0.108386 0.831470
v -0.693520 0.137949 0.707107
v -0.815493 0.162211 0.555570
v -0.906127 0.180240 0.382683
v -0.961939 0.191342 0.195090
v -0.980785 0.195090 0.000000
v -0.961939 0.191342 -0.195090
v -0.906127 0.180240 -0.382683
v -0.815493 0.162211 -0.555570
v -0.693520 0.137949 -0.707107
v -0.544895 0.108386 -0.831470
v -0.375330 0.074658 -0.923880
v -0.191342 0.038060 -0.980785
v -0.180240 0.074658 0.980785
v -0.353553 0.146446 0.923880
v -0.513280 0.212607 0.831470
v -0.653281 0.270598 0.707107
v -0.768177 0.318189 0.555570
v -0.853553 0.353553 0.382683
v -0.906127 0.375330 0.195090
v -0.923879 0.382683 0.000000
v -0.906127 0.375330 -0.195090
v -0.853553 0.353553 -0.382683
v -0.768177 0.318189 -0.555570
v -0.653281 0.270598 -0.707107
v -0.513280 0.212607 -0.831470
v -0.353553 0.146446 -0.923880
v -0.180240 0.074657 -0.980785
v -0.162212 0.108386 0.980785
v -0.318190 0.212607 0.923880
v -0.461940 0.308658 0.831470
v -0.587938 0.392847 0.707107
v -0.691341 0.461939 0.555570
v -0.768178 0.513280 0.382683
v -0.815493 0.544895 0.195090
v -0.831469 0.555570 0.000000
v -0.815493 0.544895 -0.195090
v -0.768178 0.513280 -0.382683
v -0.691341 0.461939 -0.555570
v -0.587938 0.392847 -0.707107
v -0.461940 0.308658 -0.831470
v -0.318189 0.212607 -0.923880
v -0.162212 0.108386 -0.980785
v -0.137950 0.137949 0.980785
v -0.270598 0.270598 0.923880
v -0.392847 0.392847 0.831470
v -0.500000 0.500000 0.707107
v -0.587937 0.587937 0.555570
v -0.653281 0.653281 0.382683
v -0.693519 0.693519 0.195090
v -0.707106 0.707106 0.000000
v -0.693519 0.693519 -0.195090
v -0.653281 0.653281 -0.382683
v -0.587937 0.587937 -0.555570
v -0.500000 0.500000 -0.707107
v -0.392847 0.392847 -0.831470
v -0.270598 0.270598 -0.923880
v -0.137950 0.137949 -0.980785
v -0.108386 0.162211 0.980785
v -0.212607 0.318189 0.923880
v -0.308658 0.461939 0.831470
v -0.392847 0.587937 0.707107
v -0.461939 0.691341 0.555570
v -0.513280 0.768177 0.382683
v -0.544895 0.815492 0.195090
v -0.555570 0.831469 0.000000
v -0.544895 0.815492 -0.195090
v -0.513280 0.768177 -0.382683
v -0.461939 0.691341 -0.555570
v -0.392847 0.587937 -0.707107
v -0.308658 0.461939 -0.831470
v -0.212607 0.318189 -0.923880
v -0.108386 0.162211 -0.980785
v -0.074658 0.180240 0.980785
v -0.146447 0.353553 0.923880
v -0.212607 0.513280 0.831470
v -0.270598 0.653281 0.707107
v -0.318189 0.768177 0.555570
v -0.353553 0.853553 0.382683
v -0.375330 0.906127 0.195090
v -0.382683 0.923879 0.000000
v -0.375330 0.906127 -0.195090
v -0.353553 0.853553 -0.382683
v -0.318189 0.768177 -0.555570
v -0.270598 0.653281 -0.707107
v -0.212607 0.513279 -0.831470
v -0.146446 0.353553 -0.923880
v -0.074658 0.180240 -0.980785
v -0.038060 0.191342 0.980785
v -0.074658 0.375330 0.923880
v -0.108386 0.544895 0.831470
v -0.137950 0.693520 0.707107
v -0.162211 0.815492 0.555570
v -0.180240 0.906127 0.382683
v -0.191341 0.961939 0.195090
v -0.195090 0.980785 0.000000
v -0.191341 0.961939 -0.195090
v -0.180240 0.906127 -0.382683
v -0.162211 0.815492 -0.555570
v -0.137950 0.693520 -0.707107
v -0.108386 0.544895 -0.831470
v -0.074658 0.375330 -0.923880
v -0.038060 0.191341 -0.980785
v 0.000000 0.923879 -0.382683
v 0.000000 0.831469 -0.555570
v 0.000000 0.707106 -0.707107
v 0.000000 0.382683 -0.923880
v 0.000000 0.195090 -0.980785
vt 0.000000 0.000000
vt 1.000000 1.000000
vt 0.000000 1.000000
vt 1.000000 0.000000
vt 0.000000 1.000000
vt 0.000000 0.000000
vt 1.000000 0.000000
vt 0.000000 1.000000
vt 0.000000 0.000000
vt 1.000000 0.000000
vt 0.000000 1.000000
vt 0.000000 0.000000
vt 1.000000 0.000000
vt 0.000000 1.000000
vt 0.000000 0.000000
vt 1.000000 0.000000
vt 0.000000 1.000000
vt 0.000000 0.000000
vt 1.000000 0.000000
vt 0.000000 1.000000
vt 0.000000 0.000000
vt 1.000000 0.000000
vt 0.000000 1.000000
vt 0.000000 0.000000
vt 1.000000 0.000000
vt 0.000000 1.000000
vt 0.000000 0.000000
vt 1.000000 0.000000
vt 0.000000 1.000000
vt 0.000000 0.000000
vt 1.000000 0.000000
vt 0.000000 1.000000
vt 0.000000 0.000000
vt 0.000000 0.000000
vt 1.000000 0.000000
vt 1.000000 1.000000
vt 0.000000 0.000000
vt 1.000000 0.000000
vt 1.000000 1.000000
vt 1.000000 0.000000
vt 0.000000 1.000000
vt 0.000000 0.000000
vt 1.000000 0.000000
vt 0.000000 1.000000
vt 0.000000 0.000000
vt 1.000000 0.000000
vt 0.000000 1.000000
vt 0.000000 0.000000
vt 1.000000 0.000000
vt 0.000000 1.000000
vt 0.000000 0.000000
vt 0.000000 0.000000
vt 1.000000 1.000000
vt 0.000000 1.000000
vt 1.000000 0.000000
vt 0.000000 1.000000
vt 0.000000 0.000000
vt 1.000000 0.000000
vt 0.000000 1.000000
vt 0.000000 0.000000
vt 1.000000 0.000000
vt 0.000000 1.000000
vt 0.000000 0.000000
vt 0.000000 0.000000
vt 1.000000 1.000000
vt 0.000000 1.000000
vt 1.000000 0.000000
vt 0.000000 1.000000
vt 0.000000 0.000000
vt 1.000000 0.000000
vt 0.000000 1.000000
vt 0.000000 0.000000
vt 1.000000 0.000000
vt 0.000000 1.000000
vt 0.000000 0.000000
vt 1.000000 0.000000
vt 0.000000 1.000000
vt 0.000000 0.000000
vt 1.000000 0.000000
vt 0.000000 1.000000
vt 0.000000 0.000000
vt 1.000000 0.000000
vt 0.000000 1.000000
vt 0.000000 0.000000
vt 1.000000 0.000000
vt 0.000000 1.000000
vt 0.000000 0.000000
vt 0.000000 0.000000
vt 1.000000 1.000000
vt 1.000000 0.000000
vt 1.000000 1.000000
vt 0.000000 0.000000
vt 1.000000 1.000000
vt 0.000000 1.000000
vt 1.000000 0.000000
vt 0.000000 1.000000
vt 0.000000 0.000000
vt 1.000000 0.000000
vt 0.000000 1.000000
vt 0.000000 0.000000
vt 0.000000 0.000000
vt 1.000000 1.000000
vt 0.000000 1.000000
vt 1.000000 0.000000
vt 0.000000 1.000000
vt 0.000000 0.000000
vt 1.000000 0.000000
vt 0.000000 1.000000
vt 0.000000 0.000000
vt 0.000000 0.000000
vt 1.000000 1.000000
vt 1.000000 0.000000
vt 1.000000 1.000000
vt 1.000000 0.000000
vt 0.000000 1.000000
vt 0.000000 0.000000
vt 1.000000 0.000000
vt 0.000000 1.000000
vt 0.000000 0.000000
vt 1.000000 0.000000
vt 0.000000 1.000000
vt 0.000000 0.000000
vt 1.000000 0.000000
vt 0.000000 1.000000
vt 0.000000 0.000000
vt 0.000000 0.000000
vt 1.000000 1.000000
vt 0.000000 1.000000
vt 1.000000 0.000000
vt 0.000000 1.000000
vt 0.000000 0.000000
vt 0.000000 0.000000
vt 1.000000 1.000000
vt 0.000000 1.000000
vt 1.000000 0.000000
vt 0.000000 1.000000
vt 0.000000 0.000000
vt 1.000000 0.000000
vt 0.000000 1.000000
vt 0.000000 0.000000
vt 1.000000 0.000000
vt 0.000000 1.000000
vt 0.000000 0.000000
vt 1.000000 0.000000
vt 0.000000 1.000000
vt 0.000000 0.000000
vt 0.000000 0.000000
vt 1.000000 1.000000
vt 0.000000 1.000000
vt 1.000000 0.000000
vt 0.000000 1.000000
vt 0.000000 0.000000
vt 1.000000 0.000000
vt 0.000000 1.000000
vt 0.000000 0.000000
vt 1.000000 0.000000
vt 0.000000 1.000000
vt 0.000000 0.000000
vt 1.000000 0.000000
vt 0.000000 1.000000
vt 0.000000 0.000000
vt 1.000000 0.000000
vt 0.000000 1.000000
vt 0.000000 0.000000
vt 1.000000 0.000000
vt 0.000000 1.000000
vt 0.000000 0.000000
vt 1.000000 0.000000
vt 0.000000 1.000000
vt 0.000000 0.000000
vt 1.000000 0.000000
vt 0.000000 1.000000
vt 0.000000 0.000000
vt 0.000000 0.000000
vt 1.000000 1.000000
vt 0.000000 1.000000
vt 0.000000 0.000000
vt 1.000000 1.000000
vt 1.000000 0.000000
vt 1.000000 1.000000
vt 1.000000 0.000000
vt 0.000000 1.000000
vt 0.000000 0.000000
vt 1.000000 0.000000
vt 0.000000 1.000000
vt 0.000000 0.000000
vt 0.000000 0.000000
vt 1.000000 1.000000
vt 0.000000 1.000000
vt 1.000000 0.000000
vt 0.000000 1.000000
vt 0.000000 0.000000
vt 1.000000 0.000000
vt 0.000000 1.000000
vt 0.000000 0.000000
vt 0.000000 0.000000
vt 1.000000 1.000000
vt 0.000000 1.000000
vt 0.000000 0.000000
vt 1.000000 1.000000
vt 1.000000 0.000000
vt 1.000000 1.000000
vt 1.000000 0.000000
vt 0.000000 1.000000
vt 0.000000 0.000000
vt 1.000000 0.000000
vt 0.000000 1.000000
vt 0.000000 0.000000
vt 1.000000 0.000000
vt 0.000000 1.000000
vt 0.000000 0.000000
vt 1.000000 0.000000
vt 0.000000 1.000000
vt 0.000000 0.000000
vt 0.000000 0.000000
vt 1.000000 1.000000
vt 0.000000 1.000000
vt 1.000000 0.000000
vt 0.000000 1.000000
vt 0.000000 0.000000
vt 1.000000 0.000000
vt 0.000000 1.000000
vt 0.000000 0.000000
vt 0.000000 0.000000
vt 1.000000 1.000000
vt 0.000000 1.000000
vt 0.000000 0.000000
vt 1.000000 1.000000
vt 0.000000 1.000000
vt 1.000000 0.000000
vt 0.000000 1.000000
vt 0.000000 0.000000
vt 0.308686 0.961874
vt 0.038125 0.691313
vt 0.038126 0.308685
vt 1.000000 0.000000
vt 1.000000 0.000000
vt 1.000000 0.000000
vt 1.000000 1.000000
vt 1.000000 1.000000
vt 1.000000 0.000000
vt 0.000000 1.000000
vt 0.000000 0.000000
vt 0.000000 0.000000
vt 1.000000 1.000000
vt 0.000000 1.000000
vt 1.000000 0.000000
vt 0.000000 1.000000
vt 0.000000 0.000000
vt 1.000000 0.000000
vt 0.000000 1.000000
vt 0.000000 0.000000
vt 0.000000 0.000000
vt 1.000000 1.000000
vt 0.000000 1.000000
vt 0.000000 0.000000
vt 1.000000 1.000000
vt 0.000000 1.000000
vt 1.000000 0.000000
vt 0.000000 1.000000
vt 0.000000 0.000000
vt 0.000000 0.000000
vt 1.000000 1.000000
vt 1.000000 0.000000
vt 1.000000 1.000000
vt 1.000000 0.000000
vt 0.000000 1.000000
vt 0.000000 0.000000
vt 1.000000 0.000000
vt 0.000000 1.000000
vt 0.000000 0.000000
vt 1.000000 0.000000
vt 0.000000 1.000000
vt 0.000000 0.000000
vt 0.000000 1.000000
vt 0.000000 0.000000
vt 0.000000 1.000000
vt 0.000000 0.000000
vt 1.000000 0.000000
vt 0.000000 1.000000
vt 0.000000 0.000000
vt 1.000000 0.000000
vt 0.000000 1.000000
vt 0.000000 0.000000
vt 0.000000 0.000000
vt 1.000000 1.000000
vt 0.000000 1.000000
vt 1.000000 0.000000
vt 0.000000 1.000000
vt 0.000000 0.000000
vt 1.000000 0.000000
vt 0.000000 1.000000
vt 0.000000 0.000000
vt 1.000000 0.000000
vt 0.000000 1.000000
vt 0.000000 0.000000
vt 0.000000 0.000000
vt 1.000000 1.000000
vt 0.000000 1.000000
vt 0.000000 0.000000
vt 1.000000 1.000000
vt 0.000000 1.000000
vt 1.000000 0.000000
vt 0.000000 1.000000
vt 0.000000 0.000000
vt 0.000000 0.000000
vt 1.000000 1.000000
vt 0.000000 1.000000
vt 0.000000 0.000000
vt 1.000000 1.000000
vt 0.000000 1.000000
vt 1.000000 0.000000
vt 0.000000 1.000000
vt 0.000000 0.000000
vt 1.000000 0.000000
vt 0.000000 1.000000
vt 0.000000 0.000000
vt 0.000000 0.000000
vt 1.000000 1.000000
vt 0.000000 1.000000
vt 0.000000 0.000000
vt 1.000000 1.000000
vt 0.000000 1.000000
vt 1.000000 0.000000
vt 0.000000 1.000000
vt 0.000000 0.000000
vt 0.000000 0.000000
vt 1.000000 1.000000
vt 1.000000 0.000000
vt 1.000000 1.000000
vt 0.000000 0.000000
vt 1.000000 1.000000
vt 0.000000 1.000000
vt 1.000000 0.000000
vt 0.000000 1.000000
vt 0.000000 0.000000
vt 1.000000 0.000000
vt 0.000000 1.000000
vt 0.000000 0.000000
vt 0.000000 0.000000
vt 1.000000 1.000000
vt 0.000000 1.000000
vt 1.000000 0.000000
vt 0.000000 1.000000
vt 0.000000 0.000000
vt 1.000000 0.000000
vt 0.000000 1.000000
vt 0.000000 0.000000
vt 0.000000 0.000000
vt 1.000000 1.000000
vt 1.000000 0.000000
vt 1.000000 1.000000
vt 1.000000 0.000000
vt 0.000000 1.000000
vt 0.000000 0.000000
vt 1.000000 0.000000
vt 0.000000 1.000000
vt 0.000000 0.000000
vt 1.000000 0.000000
vt 0.000000 1.000000
vt 0.000000 0.000000
vt 0.000000 0.000000
vt 1.000000 1.000000
vt 0.000000 1.000000
vt 0.000000 0.000000
vt 1.000000 1.000000
vt 0.000000 1.000000
vt 1.000000 0.000000
vt 0.000000 1.000000
vt 0.000000 0.000000
vt 1.000000 0.000000
vt 0.000000 1.000000
vt 0.000000 0.000000
vt 1.000000 0.000000
vt 0.000000 1.000000
vt 0.000000 0.000000
vt 1.000000 0.000000
vt 0.000000 1.000000
vt 0.000000 0.000000
vt 1.000000 0.000000
vt 0.000000 1.000000
vt 0.000000 0.000000
vt 1.000000 0.000000
vt 0.000000 1.000000
vt 0.000000 0.000000
vt 0.000000 0.000000
vt 1.000000 1.000000
vt 0.000000 1.000000
vt 1.000000 0.000000
vt 0.000000 1.000000
vt 0.000000 0.000000
vt 1.000000 0.000000
vt 0.000000 1.000000
vt 0.000000 0.000000
vt 1.000000 0.000000
vt 0.000000 1.000000
vt 0.000000 0.000000
vt 1.000000 0.000000
vt 0.000000 1.000000
vt 0.000000 0.000000
vt 1.000000 0.000000
vt 0.000000 1.000000
vt 0.000000 0.000000
vt 1.000000 0.000000
vt 0.000000 1.000000
vt 0.000000 0.000000
vt 0.000000 0.000000
vt 1.000000 1.000000
vt 0.000000 1.000000
vt 0.000000 0.000000
vt 1.000000 1.000000
vt 0.000000 1.000000
vt 1.000000 0.000000
vt 0.000000 1.000000
vt 0.000000 0.000000
vt 0.000000 0.000000
vt 1.000000 1.000000
vt 1.000000 0.000000
vt 1.000000 1.000000
vt 1.000000 0.000000
vt 0.000000 1.000000
vt 0.000000 0.000000
vt 1.000000 0.000000
vt 0.000000 1.000000
vt 0.000000 0.000000
vt 1.000000 0.000000
vt 0.000000 1.000000
vt 0.000000 0.000000
vt 0.000000 0.000000
vt 1.000000 1.000000
vt 0.000000 1.000000
vt 0.000000 0.000000
vt 1.000000 1.000000
vt 0.000000 1.000000
vt 1.000000 0.000000
vt 0.000000 1.000000
vt 0.000000 0.000000
vt 0.000000 0.000000
vt 1.000000 1.000000
vt 1.000000 0.000000
vt 1.000000 1.000000
vt 1.000000 0.000000
vt 0.000000 1.000000
vt 0.000000 0.000000
vt 1.000000 0.000000
vt 0.000000 1.000000
vt 0.000000 0.000000
vt 1.000000 0.000000
vt 0.000000 1.000000
vt 0.000000 0.000000
vt 0.000000 0.000000
vt 1.000000 1.000000
vt 0.000000 1.000000
vt 0.000000 0.000000
vt 1.000000 1.000000
vt 0.000000 1.000000
vt 0.000000 0.000000
vt 1.000000 1.000000
vt 0.000000 1.000000
vt 1.000000 0.000000
vt 0.000000 1.000000
vt 0.000000 0.000000
vt 1.000000 0.000000
vt 0.000000 1.000000
vt 0.000000 0.000000
vt 0.000000 0.000000
vt 1.000000 1.000000
vt 0.000000 1.000000
vt 1.000000 0.000000
vt 0.000000 1.000000
vt 0.000000 0.000000
vt 1.000000 0.000000
vt 0.000000 1.000000
vt 0.000000 0.000000
vt 0.000000 0.000000
vt 1.000000 1.000000
vt 0.000000 1.000000
vt 0.000000 0.000000
vt 1.000000 1.000000
vt 0.000000 1.000000
vt 1.000000 0.000000
vt 0.000000 1.000000
vt 0.000000 0.000000
vt 0.000000 0.000000
vt 1.000000 1.000000
vt 0.000000 1.000000
vt 1.000000 0.000000
vt 0.000000 1.000000
vt 0.000000 0.000000
vt 1.000000 0.000000
vt 0.000000 1.000000
vt 0.000000 0.000000
vt 1.000000 0.000000
vt 0.000000 1.000000
vt 0.000000 0.000000
vt 0.000000 0.000000
vt 1.000000 1.000000
vt 0.000000 1.000000
vt 1.000000 0.000000
vt 0.000000 1.000000
vt 0.000000 0.000000
vt 1.000000 0.000000
vt 0.000000 1.000000
vt 0.000000 0.000000
vt 0.000000 0.000000
vt 1.000000 1.000000
vt 1.000000 0.000000
vt 1.000000 1.000000
vt 1.000000 0.000000
vt 0.000000 1.000000
vt 0.000000 0.000000
vt 1.000000 0.000000
vt 0.000000 1.000000
vt 0.000000 0.000000
vt 0.000000 0.000000
vt 1.000000 1.000000
vt 0.000000 1.000000
vt 0.000000 0.000000
vt 1.000000 1.000000
vt 0.000000 1.000000
vt 0.000000 0.000000
vt 1.000000 1.000000
vt 0.000000 1.000000
vt 1.000000 0.000000
vt 0.000000 1.000000
vt 0.000000 0.000000
vt 0.000000 0.000000
vt 1.000000 1.000000
vt 1.000000 0.000000
vt 1.000000 1.000000
vt 0.000000 0.000000
vt 1.000000 1.000000
vt 0.000000 1.000000
vt 1.000000 0.000000
vt 0.000000 1.000000
vt 0.000000 0.000000
vt 1.000000 0.000000
vt 0.000000 1.000000
vt 0.000000 0.000000
vt 1.000000 0.000000
vt 0.000000 1.000000
vt 0.000000 0.000000
vt 0.000000 0.000000
vt 1.000000 1.000000
vt 0.000000 1.000000
vt 0.000000 0.000000
vt 1.000000 1.000000
vt 0.000000 1.000000
vt 1.000000 0.000000
vt 0.000000 1.000000
vt 0.000000 0.000000
vt 0.000000 0.000000
vt 1.000000 1.000000
vt 0.000000 1.000000
vt 1.000000 0.000000
vt 0.000000 1.000000
vt 0.000000 0.000000
vt 1.000000 0.000000
vt 0.000000 1.000000
vt 0.000000 0.000000
vt 0.000000 0.000000
vt 1.000000 1.000000
vt 0.000000 1.000000
vt 1.000000 0.000000
vt 0.000000 1.000000
vt 0.000000 0.000000
vt 1.000000 0.000000
vt 0.000000 1.000000
vt 0.000000 0.000000
vt 0.000000 0.000000
vt 1.000000 1.000000
vt 0.000000 1.000000
vt 0.000000 0.000000
vt 1.000000 1.000000
vt 0.000000 1.000000
vt 1.000000 0.000000
vt 0.000000 1.000000
vt 0.000000 0.000000
vt 1.000000 0.000000
vt 0.000000 1.000000
vt 0.000000 0.000000
vt 0.000000 0.000000
vt 1.000000 1.000000
vt 0.000000 1.000000
vt 0.000000 0.000000
vt 1.000000 1.000000
vt 0.000000 1.000000
vt 1.000000 0.000000
vt 0.000000 1.000000
vt 0.000000 0.000000
vt 0.000000 0.000000
vt 1.000000 1.000000
vt 1.000000 0.000000
vt 1.000000 1.000000
vt 1.000000 0.000000
vt 0.000000 1.000000
vt 0.000000 0.000000
vt 1.000000 0.000000
vt 0.000000 1.000000
vt 0.000000 0.000000
vt 1.000000 0.000000
vt 0.000000 1.000000
vt 0.000000 0.000000
vt 1.000000 0.000000
vt 0.000000 1.000000
vt 0.000000 0.000000
vt 1.000000 0.000000
vt 0.000000 1.000000
vt 0.000000 0.000000
vt 0.000000 0.000000
vt 1.000000 1.000000
vt 0.000000 1.000000
vt 0.000000 0.000000
vt 1.000000 1.000000
vt 1.000000 0.000000
vt 1.000000 1.000000
vt 1.000000 0.000000
vt 0.000000 1.000000
vt 0.000000 0.000000
vt 1.000000 0.000000
vt 0.000000 1.000000
vt 0.000000 0.000000
vt 1.000000 0.000000
vt 0.000000 1.000000
vt 0.000000 0.000000
vt 1.000000 0.000000
vt 0.000000 1.000000
vt 0.000000 0.000000
vt 0.000000 0.000000
vt 1.000000 1.000000
vt 0.000000 1.000000
vt 0.000000 0.000000
vt 1.000000 1.000000
vt 0.000000 1.000000
vt 1.000000 0.000000
vt 0.000000 1.000000
vt 0.000000 0.000000
vt 0.000000 0.000000
vt 1.000000 1.000000
vt 0.000000 1.000000
vt 1.000000 0.000000
vt 0.000000 1.000000
vt 0.000000 0.000000
vt 1.000000 0.000000
vt 0.000000 1.000000
vt 0.000000 0.000000
vt 1.000000 0.000000
vt 0.000000 1.000000
vt 0.000000 0.000000
vt 0.000000 0.000000
vt 1.000000 1.000000
vt 0.000000 1.000000
vt 0.000000 0.000000
vt 1.000000 1.000000
vt 0.000000 1.000000
vt 1.000000 0.000000
vt 0.000000 1.000000
vt 0.000000 0.000000
vt 0.000000 0.000000
vt 1.000000 1.000000
vt 0.000000 1.000000
vt 1.000000 0.000000
vt 0.000000 1.000000
vt 0.000000 0.000000
vt 1.000000 0.000000
vt 0.000000 1.000000
vt 0.000000 0.000000
vt 0.000000 0.000000
vt 1.000000 1.000000
vt 0.000000 1.000000
vt 0.000000 0.000000
vt 1.000000 1.000000
vt 0.000000 1.000000
vt 1.000000 0.000000
vt 0.000000 1.000000
vt 0.000000 0.000000
vt 1.000000 0.000000
vt 0.000000 1.000000
vt 0.000000 0.000000
vt 0.000000 0.000000
vt 1.000000 1.000000
vt 1.000000 0.000000
vt 1.000000 1.000000
vt 1.000000 0.000000
vt 0.000000 1.000000
vt 0.000000 0.000000
vt 1.000000 0.000000
vt 0.000000 1.000000
vt 0.000000 0.000000
vt 1.000000 0.000000
vt 0.000000 1.000000
vt 0.000000 0.000000
vt 1.000000 0.000000
vt 0.000000 1.000000
vt 0.000000 0.000000
vt 0.000000 0.000000
vt 1.000000 1.000000
vt 0.000000 1.000000
vt 1.000000 0.000000
vt 0.000000 1.000000
vt 0.000000 0.000000
vt 0.000000 0.000000
vt 1.000000 1.000000
vt 1.000000 0.000000
vt 1.000000 1.000000
vt 1.000000 0.000000
vt 0.000000 1.000000
vt 0.000000 0.000000
vt 1.000000 0.000000
vt 0.000000 1.000000
vt 0.000000 0.000000
vt 1.000000 0.000000
vt 0.000000 1.000000
vt 0.000000 0.000000
vt 1.000000 0.000000
vt 0.000000 1.000000
vt 0.000000 0.000000
vt 0.000000 0.000000
vt 1.000000 1.000000
vt 0.000000 1.000000
vt 0.000000 0.000000
vt 1.000000 1.000000
vt 0.000000 1.000000
vt 0.000000 0.000000
vt 1.000000 1.000000
vt 0.000000 1.000000
vt 0.000000 0.000000
vt 1.000000 1.000000
vt 0.000000 1.000000
vt 1.000000 0.000000
vt 0.000000 1.000000
vt 0.000000 0.000000
vt 1.000000 0.000000
vt 0.000000 1.000000
vt 0.000000 0.000000
vt 0.000000 0.000000
vt 1.000000 1.000000
vt 0.000000 1.000000
vt 0.000000 0.000000
vt 1.000000 1.000000
vt 0.000000 1.000000
vt 0.000000 0.000000
vt 1.000000 1.000000
vt 0.000000 1.000000
vt 1.000000 0.000000
vt 0.000000 1.000000
vt 0.000000 0.000000
vt 0.000000 0.000000
vt 1.000000 1.000000
vt 0.000000 1.000000
vt 1.000000 0.000000
vt 0.000000 1.000000
vt 0.000000 0.000000
vt 1.000000 0.000000
vt 0.000000 1.000000
vt 0.000000 0.000000
vt 0.000000 0.000000
vt 1.000000 1.000000
vt 0.000000 1.000000
vt 0.000000 0.000000
vt 1.000000 1.000000
vt 0.000000 1.000000
vt 1.000000 0.000000
vt 0.000000 1.000000
vt 0.000000 0.000000
vt 1.000000 0.000000
vt 0.000000 1.000000
vt 0.000000 0.000000
vt 0.000000 0.000000
vt 1.000000 1.000000
vt 1.000000 0.000000
vt 1.000000 1.000000
vt 1.000000 0.000000
vt 0.000000 1.000000
vt 0.000000 0.000000
vt 0.000000 0.000000
vt 0.000000 1.000000
vt 1.000000 0.000000
vt 0.000000 1.000000
vt 0.000000 0.000000
vt 1.000000 0.000000
vt 0.000000 1.000000
vt 0.000000 0.000000
vt 0.000000 0.000000
vt 1.000000 1.000000
vt 0.000000 1.000000
vt 0.000000 0.000000
vt 1.000000 1.000000
vt 0.000000 1.000000
vt 0.000000 0.000000
vt 1.000000 1.000000
vt 1.000000 0.000000
vt 1.000000 1.000000
vt 0.000000 0.000000
vt 1.000000 1.000000
vt 0.000000 1.000000
vt 0.000000 0.000000
vt 0.000000 1.000000
vt 1.000000 0.000000
vt 0.000000 1.000000
vt 0.000000 0.000000
vt 1.000000 0.000000
vt 0.000000 1.000000
vt 0.000000 0.000000
vt 0.000000 0.000000
vt 1.000000 1.000000
vt 0.000000 1.000000
vt 0.000000 0.000000
vt 1.000000 1.000000
vt 0.000000 1.000000
vt 1.000000 0.000000
vt 0.000000 1.000000
vt 0.000000 0.000000
vt 1.000000 0.000000
vt 0.000000 1.000000
vt 0.000000 0.000000
vt 0.000000 0.000000
vt 1.000000 1.000000
vt 0.000000 1.000000
vt 1.000000 0.000000
vt 0.000000 1.000000
vt 0.000000 0.000000
vt 0.000000 0.000000
vt 1.000000 1.000000
vt 0.000000 1.000000
vt 0.000000 0.000000
vt 1.000000 1.000000
vt 0.000000 1.000000
vt 1.000000 0.000000
vt 0.000000 1.000000
vt 0.000000 0.000000
vt 1.000000 0.000000
vt 0.000000 1.000000
vt 0.000000 0.000000
vt 0.000000 0.000000
vt 1.000000 1.000000
vt 0.000000 1.000000
vt 1.000000 0.000000
vt 0.000000 1.000000
vt 0.000000 0.000000
vt 1.000000 0.000000
vt 0.000000 1.000000
vt 0.000000 0.000000
vt 0.000000 0.000000
vt 1.000000 1.000000
vt 0.000000 1.000000
vt 0.000000 0.000000
vt 1.000000 1.000000
vt 0.000000 1.000000
vt 1.000000 0.000000
vt 0.000000 1.000000
vt 0.000000 0.000000
vt 1.000000 0.000000
vt 0.000000 1.000000
vt 0.000000 0.000000
vt 0.000000 0.000000
vt 1.000000 1.000000
vt 1.000000 0.000000
vt 1.000000 1.000000
vt 0.000000 0.000000
vt 1.000000 1.000000
vt 0.000000 1.000000
vt 0.000000 0.000000
vt 0.000000 1.000000
vt 1.000000 0.000000
vt 0.000000 1.000000
vt 0.000000 0.000000
vt 1.000000 0.000000
vt 0.000000 1.000000
vt 0.000000 0.000000
vt 0.000000 0.000000
vt 1.000000 1.000000
vt 0.000000 1.000000
vt 0.000000 0.000000
vt 1.000000 1.000000
vt 0.000000 1.000000
vt 1.000000 0.000000
vt 0.000000 1.000000
vt 0.000000 0.000000
vt 1.000000 0.000000
vt 0.000000 1.000000
vt 0.000000 0.000000
vt 1.000000 0.000000
vt 0.000000 1.000000
vt 0.000000 0.000000
vt 1.000000 0.000000
vt 0.000000 1.000000
vt 0.000000 0.000000
vt 1.000000 0.000000
vt 0.000000 1.000000
vt 0.000000 0.000000
vt 0.000000 0.000000
vt 1.000000 1.000000
vt 0.000000 1.000000
vt 0.000000 0.000000
vt 1.000000 1.000000
vt 0.000000 1.000000
vt 1.000000 0.000000
vt 0.000000 1.000000
vt 0.000000 0.000000
vt 1.000000 0.000000
vt 0.000000 1.000000
vt 0.000000 0.000000
vt 1.000000 0.000000
vt 0.000000 1.000000
vt 0.000000 0.000000
vt 1.000000 0.000000
vt 0.000000 1.000000
vt 0.000000 0.000000
vt 0.000000 0.000000
vt 1.000000 1.000000
vt 0.000000 1.000000
vt 0.000000 0.000000
vt 1.000000 1.000000
vt 0.000000 1.000000
vt 1.000000 0.000000
vt 0.000000 1.000000
vt 0.000000 0.000000
vt 1.000000 0.000000
vt 0.000000 1.000000
vt 0.000000 0.000000
vt 0.000000 0.000000
vt 1.000000 1.000000
vt 1.000000 0.000000
vt 1.000000 1.000000
vt 1.000000 0.000000
vt 0.000000 1.000000
vt 0.000000 0.000000
vt 1.000000 0.000000
vt 0.000000 1.000000
vt 0.000000 0.000000
vt 0.000000 0.000000
vt 1.000000 1.000000
vt 0.000000 1.000000
vt 0.000000 0.000000
vt 1.000000 1.000000
vt 0.000000 1.000000
vt 1.000000 0.000000
vt 0.000000 1.000000
vt 0.000000 0.000000
vt 1.000000 0.000000
vt 0.000000 1.000000
vt 0.000000 0.000000
vt 0.000000 0.000000
vt 1.000000 1.000000
vt 1.000000 0.000000
vt 1.000000 1.000000
vt 0.000000 0.000000
vt 1.000000 1.000000
vt 0.000000 1.000000
vt 1.000000 0.000000
vt 0.000000 1.000000
vt 0.000000 0.000000
vt 1.000000 0.000000
vt 0.000000 1.000000
vt 0.000000 0.000000
vt 0.000000 0.000000
vt 1.000000 1.000000
vt 0.000000 1.000000
vt 0.000000 0.000000
vt 1.000000 1.000000
vt 0.000000 1.000000
vt 0.000000 0.000000
vt 1.000000 1.000000
vt 0.000000 1.000000
vt 1.000000 0.000000
vt 0.000000 1.000000
vt 0.000000 0.000000
vt 0.000000 0.000000
vt 1.000000 1.000000
vt 0.000000 1.000000
vt 1.000000 0.000000
vt 0.000000 1.000000
vt 0.000000 0.000000
vt 1.000000 0.000000
vt 0.000000 1.000000
vt 0.000000 0.000000
vt 0.000000 0.000000
vt 1.000000 1.000000
vt 0.000000 1.000000
vt 1.000000 0.000000
vt 0.000000 1.000000
vt 0.000000 0.000000
vt 1.000000 0.000000
vt 0.000000 1.000000
vt 0.000000 0.000000
vt 0.000000 0.000000
vt 1.000000 1.000000
vt 0.000000 1.000000
vt 1.000000 0.000000
vt 0.000000 1.000000
vt 0.000000 0.000000
vt 1.000000 0.000000
vt 0.000000 1.000000
vt 0.000000 0.000000
vt 1.000000 0.000000
vt 0.000000 1.000000
vt 0.000000 0.000000
vt 0.000000 0.000000
vt 1.000000 1.000000
vt 0.000000 1.000000
vt 1.000000 0.000000
vt 0.000000 1.000000
vt 0.000000 0.000000
vt 1.000000 0.000000
vt 0.000000 1.000000
vt 0.000000 0.000000
vt 0.000000 0.000000
vt 1.000000 1.000000
vt 1.000000 0.000000
vt 1.000000 1.000000
vt 0.000000 0.000000
vt 1.000000 1.000000
vt 0.000000 1.000000
vt 1.000000 0.000000
vt 0.000000 1.000000
vt 0.000000 0.000000
vt 1.000000 0.000000
vt 0.000000 1.000000
vt 0.000000 0.000000
vt 0.000000 0.000000
vt 1.000000 1.000000
vt 0.000000 1.000000
vt 1.000000 0.000000
vt 0.000000 1.000000
vt 0.000000 0.000000
vt 0.000000 0.000000
vt 1.000000 1.000000
vt 0.000000 1.000000
vt 0.000000 0.000000
vt 1.000000 1.000000
vt 1.000000 0.000000
vt 1.000000 1.000000
vt 1.000000 0.000000
vt 0.000000 1.000000
vt 0.000000 0.000000
vt 1.000000 0.000000
vt 0.000000 1.000000
vt 0.000000 0.000000
vt 1.000000 0.000000
vt 0.000000 1.000000
vt 0.000000 0.000000
vt 1.000000 0.000000
vt 0.000000 1.000000
vt 0.000000 0.000000
vt 0.000000 0.000000
vt 1.000000 1.000000
vt 0.000000 1.000000
vt 1.000000 0.000000
vt 0.000000 1.000000
vt 0.000000 0.000000
vt 1.000000 0.000000
vt 0.000000 1.000000
vt 0.000000 0.000000
vt 0.000000 0.000000
vt 1.000000 1.000000
vt 0.000000 1.000000
vt 0.000000 0.000000
vt 1.000000 1.000000
vt 0.000000 1.000000
vt 1.000000 0.000000
vt 0.000000 1.000000
vt 0.000000 0.000000
vt 0.000000 0.000000
vt 1.000000 1.000000
vt 0.000000 1.000000
vt 0.000000 0.000000
vt 1.000000 1.000000
vt 0.000000 1.000000
vt 0.000000 0.000000
vt 1.000000 1.000000
vt 0.000000 1.000000
vt 1.000000 0.000000
vt 0.000000 1.000000
vt 0.000000 0.000000
vt 0.000000 0.000000
vt 1.000000 1.000000
vt 0.000000 1.000000
vt 1.000000 0.000000
vt 0.000000 1.000000
vt 0.000000 0.000000
vt 1.000000 0.000000
vt 0.000000 1.000000
vt 0.000000 0.000000
vt 1.000000 0.000000
vt 0.000000 1.000000
vt 0.000000 0.000000
vt 0.000000 0.000000
vt 1.000000 1.000000
vt 0.000000 1.000000
vt 1.000000 0.000000
vt 0.000000 1.000000
vt 0.000000 0.000000
vt 1.000000 0.000000
vt 0.000000 1.000000
vt 0.000000 0.000000
vt 0.000000 0.000000
vt 1.000000 1.000000
vt 1.000000 0.000000
vt 1.000000 1.000000
vt 1.000000 0.000000
vt 0.000000 1.000000
vt 0.000000 0.000000
vt 0.000000 0.000000
vt 0.000000 1.000000
vt 1.000000 0.000000
vt 0.000000 1.000000
vt 0.000000 0.000000
vt 0.000000 0.000000
vt 1.000000 1.000000
vt 0.000000 1.000000
vt 0.000000 0.000000
vt 1.000000 1.000000
vt 0.000000 1.000000
vt 1.000000 0.000000
vt 0.000000 1.000000
vt 0.000000 0.000000
vt 0.000000 0.000000
vt 1.000000 1.000000
vt 1.000000 0.000000
vt 1.000000 1.000000
vt 1.000000 0.000000
vt 0.000000 1.000000
vt 0.000000 0.000000
vt 1.000000 0.000000
vt 0.000000 1.000000
vt 0.000000 0.000000
vt 1.000000 0.000000
vt 0.000000 1.000000
vt 0.000000 0.000000
vt 1.000000 0.000000
vt 0.000000 1.000000
vt 0.000000 0.000000
vt 0.000000 0.000000
vt 1.000000 1.000000
vt 0.000000 1.000000
vt 1.000000 0.000000
vt 0.000000 1.000000
vt 0.000000 0.000000
vt 1.000000 0.000000
vt 0.000000 1.000000
vt 0.000000 0.000000
vt 0.000000 0.000000
vt 1.000000 1.000000
vt 0.000000 1.000000
vt 1.000000 0.000000
vt 0.000000 1.000000
vt 0.000000 0.000000
vt 1.000000 0.000000
vt 0.000000 1.000000
vt 0.000000 0.000000
vt 1.000000 0.000000
vt 0.000000 1.000000
vt 0.000000 0.000000
vt 0.000000 0.000000
vt 1.000000 1.000000
vt 0.000000 1.000000
vt 0.000000 0.000000
vt 1.000000 1.000000
vt 0.000000 1.000000
vt 1.000000 0.000000
vt 0.000000 1.000000
vt 0.000000 0.000000
vt 0.000000 0.000000
vt 1.000000 1.000000
vt 0.000000 1.000000
vt 1.000000 0.000000
vt 0.000000 1.000000
vt 0.000000 0.000000
vt 0.000000 0.000000
vt 1.000000 1.000000
vt 0.000000 1.000000
vt 1.000000 0.000000
vt 0.000000 1.000000
vt 0.000000 0.000000
vt 0.000000 0.000000
vt 1.000000 1.000000
vt 0.000000 1.000000
vt 1.000000 0.000000
vt 0.000000 1.000000
vt 0.000000 0.000000
vt 0.000000 0.000000
vt 1.000000 1.000000
vt 0.000000 1.000000
vt 0.000000 0.000000
vt 1.000000 1.000000
vt 1.000000 0.000000
vt 1.000000 1.000000
vt 1.000000 0.000000
vt 0.000000 1.000000
vt 0.000000 0.000000
vt 0.000000 0.000000
vt 0.000000 1.000000
vt 1.000000 0.000000
vt 0.000000 1.000000
vt 0.000000 0.000000
vt 0.000000 0.000000
vt 1.000000 1.000000
vt 0.000000 1.000000
vt 1.000000 0.000000
vt 1.000000 1.000000
vt 1.000000 1.000000
vt 1.000000 1.000000
vt 1.000000 1.000000
vt 1.000000 1.000000
vt 1.000000 1.000000
vt 1.000000 1.000000
vt 1.000000 1.000000
vt 1.000000 1.000000
vt 1.000000 1.000000
vt 1.000000 1.000000
vt 1.000000 1.000000
vt 1.000000 0.000000
vt 1.000000 1.000000
vt 1.000000 1.000000
vt 1.000000 1.000000
vt 1.000000 0.000000
vt 1.000000 1.000000
vt 1.000000 1.000000
vt 1.000000 1.000000
vt 1.000000 1.000000
vt 1.000000 1.000000
vt 1.000000 1.000000
vt 1.000000 1.000000
vt 1.000000 0.000000
vt 1.000000 1.000000
vt 1.000000 1.000000
vt 1.000000 0.000000
vt 1.000000 1.000000
vt 1.000000 1.000000
vt 1.000000 1.000000
vt 1.000000 1.000000
vt 1.000000 1.000000
vt 1.000000 0.000000
vt 1.000000 1.000000
vt 1.000000 0.000000
vt 1.000000 1.000000
vt 1.000000 1.000000
vt 1.000000 1.000000
vt 1.000000 1.000000
vt 1.000000 0.000000
vt 1.000000 1.000000
vt 1.000000 1.000000
vt 1.000000 1.000000
vt 1.000000 1.000000
vt 1.000000 1.000000
vt 1.000000 1.000000
vt 1.000000 1.000000
vt 1.000000 1.000000
vt 1.000000 0.000000
vt 1.000000 1.000000
vt 1.000000 0.000000
vt 1.000000 1.000000
vt 1.000000 1.000000
vt 1.000000 0.000000
vt 1.000000 1.000000
vt 1.000000 1.000000
vt 1.000000 0.000000
vt 1.000000 1.000000
vt 1.000000 1.000000
vt 1.000000 0.000000
vt 1.000000 0.000000
vt 0.500001 0.999929
vt 0.402469 0.990323
vt 0.222254 0.915676
vt 0.146496 0.853502
vt 0.084323 0.777745
vt 0.009677 0.597530
vt 0.000071 0.499999
vt 0.009677 0.402468
vt 0.084324 0.222254
vt 0.146497 0.146496
vt 0.222255 0.084324
vt 0.308686 0.038125
vt 0.402470 0.009677
vt 0.500001 0.000071
vt 1.000000 0.000000
vt 1.000000 0.000000
vt 1.000000 1.000000
vt 1.000000 1.000000
vt 1.000000 1.000000
vt 1.000000 1.000000
vt 1.000000 1.000000
vt 1.000000 1.000000
vt 1.000000 1.000000
vt 1.000000 1.000000
vt 1.000000 1.000000
vt 1.000000 1.000000
vt 1.000000 0.000000
vt 1.000000 1.000000
vt 1.000000 1.000000
vt 1.000000 0.000000
vt 1.000000 0.000000
vt 1.000000 1.000000
vt 1.000000 0.000000
vt 1.000000 0.000000
vt 1.000000 1.000000
vt 1.000000 1.000000
vt 1.000000 0.000000
vt 1.000000 0.000000
vt 1.000000 1.000000
vt 1.000000 0.000000
vt 1.000000 1.000000
vt 1.000000 1.000000
vt 1.000000 0.000000
vt 1.000000 1.000000
vt 1.000000 1.000000
vt 1.000000 1.000000
vt 1.000000 1.000000
vt 1.000000 0.000000
vt 1.000000 0.000000
vt 1.000000 1.000000
vt 1.000000 1.000000
vt 1.000000 1.000000
vt 1.000000 1.000000
vt 1.000000 1.000000
vt 1.000000 0.000000
vt 1.000000 1.000000
vt 1.000000 1.000000
vt 1.000000 1.000000
vt 1.000000 1.000000
vt 1.000000 1.000000
vt 1.000000 1.000000
vt 1.000000 0.000000
vt 1.000000 0.000000
vt 1.000000 1.000000
vt 1.000000 1.000000
vt 1.000000 1.000000
vt 1.000000 1.000000
vt 1.000000 0.000000
vt 1.000000 0.000000
vt 1.000000 1.000000
vt 1.000000 1.000000
vt 1.000000 1.000000
vt 1.000000 0.000000
vt 1.000000 0.000000
vt 1.000000 0.000000
vt 1.000000 1.000000
vt 1.000000 1.000000
vt 1.000000 0.000000
vt 1.000000 1.000000
vt 1.000000 1.000000
vt 1.000000 0.000000
vt 1.000000 0.000000
vt 1.000000 1.000000
vt 1.000000 0.000000
vt 1.000000 1.000000
vt 1.000000 1.000000
vt 1.000000 1.000000
vt 1.000000 0.000000
vt 1.000000 1.000000
vt 1.000000 1.000000
vt 1.000000 1.000000
vt 1.000000 0.000000
vt 1.000000 0.000000
vt 1.000000 0.000000
vt 1.000000 1.000000
vt 1.000000 0.000000
vt 1.000000 1.000000
vt 1.000000 1.000000
vt 1.000000 0.000000
vt 1.000000 0.000000
vt 1.000000 1.000000
vt 1.000000 0.000000
vt 1.000000 1.000000
vt 1.000000 1.000000
vt 1.000000 0.000000
vt 1.000000 1.000000
vt 1.000000 1.000000
vt 1.000000 0.000000
vt 1.000000 0.000000
vt 1.000000 1.000000
vt 1.000000 1.000000
vt 1.000000 0.000000
vt 1.000000 0.000000
vt 1.000000 1.000000
vt 1.000000 1.000000
vt 1.000000 1.000000
vt 1.000000 1.000000
vt 1.000000 1.000000
vt 1.000000 0.000000
vt 1.000000 1.000000
vt 1.000000 1.000000
vt 1.000000 1.000000
vt 1.000000 0.000000
vt 1.000000 0.000000
vt 1.000000 1.000000
vt 1.000000 0.000000
vt 1.000000 1.000000
vt 1.000000 1.000000
vt 1.000000 1.000000
vt 1.000000 0.000000
vt 1.000000 0.000000
vt 1.000000 1.000000
vt 1.000000 0.000000
vt 1.000000 1.000000
vt 1.000000 1.000000
vt 1.000000 0.000000
vt 1.000000 0.000000
vt 1.000000 1.000000
vt 1.000000 1.000000
vt 1.000000 1.000000
vt 1.000000 1.000000
vt 1.000000 1.000000
vt 1.000000 0.000000
vt 1.000000 1.000000
vt 1.000000 1.000000
vt 1.000000 1.000000
vt 1.000000 1.000000
vt 1.000000 0.000000
vt 1.000000 0.000000
vt 1.000000 0.000000
vt 1.000000 0.000000
vt 1.000000 1.000000
vt 1.000000 1.000000
vt 1.000000 0.000000
vt 1.000000 0.000000
vt 1.000000 0.000000
vt 1.000000 1.000000
vt 1.000000 0.000000
vt 1.000000 1.000000
vt 1.000000 1.000000
vt 1.000000 0.000000
vt 1.000000 0.000000
vt 1.000000 1.000000
vt 1.000000 1.000000
vt 1.000000 1.000000
vt 1.000000 0.000000
vt 1.000000 1.000000
vt 1.000000 1.000000
vt 1.000000 0.000000
vt 1.000000 0.000000
vt 1.000000 0.000000
vt 1.000000 0.000000
vt 1.000000 1.000000
vt 1.000000 1.000000
vt 1.000000 0.000000
vt 1.000000 0.000000
vt 1.000000 1.000000
vt 1.000000 1.000000
vt 1.000000 0.000000
vt 1.000000 1.000000
vt 1.000000 0.000000
vt 1.000000 0.000000
vt 1.000000 1.000000
vt 1.000000 1.000000
vt 1.000000 0.000000
vt 1.000000 1.000000
vt 1.000000 1.000000
vt 1.000000 0.000000
vt 1.000000 0.000000
vt 1.000000 1.000000
vt 1.000000 1.000000
vt 1.000000 0.000000
vt 1.000000 0.000000
vt 1.000000 1.000000
vt 1.000000 1.000000
vt 1.000000 0.000000
vt 1.000000 0.000000
vt 1.000000 1.000000
vt 1.000000 1.000000
vt 1.000000 1.000000
vt 1.000000 1.000000
vt 1.000000 0.000000
vt 1.000000 0.000000
vt 1.000000 1.000000
vt 1.000000 1.000000
vt 1.000000 1.000000
vt 1.000000 1.000000
vt 1.000000 0.000000
vt 1.000000 0.000000
vt 1.000000 1.000000
vt 1.000000 1.000000
vt 1.000000 1.000000
vt 1.000000 1.000000
vt 1.000000 0.000000
vt 1.000000 0.000000
vt 1.000000 1.000000
vt 1.000000 1.000000
vt 1.000000 0.000000
vt 1.000000 1.000000
vt 1.000000 0.000000
vt 1.000000 0.000000
vt 1.000000 0.000000
vt 1.000000 1.000000
vt 1.000000 0.000000
vt 1.000000 1.000000
vt 1.000000 1.000000
vt 1.000000 0.000000
vt 1.000000 1.000000
vt 1.000000 1.000000
vt 1.000000 0.000000
vt 1.000000 1.000000
vt 1.000000 1.000000
vt 1.000000 1.000000
vt 1.000000 0.000000
vt 1.000000 1.000000
vt 1.000000 1.000000
vt 1.000000 0.000000
vt 1.000000 1.000000
vt 1.000000 0.000000
vt 1.000000 1.000000
vt 1.000000 0.000000
vt 1.000000 1.000000
vt 1.000000 1.000000
vt 1.000000 1.000000
vt 1.000000 0.000000
vt 1.000000 1.000000
vt 1.000000 1.000000
vt 1.000000 0.000000
vt 1.000000 0.000000
vt 1.000000 1.000000
vt 1.000000 0.000000
vt 1.000000 0.000000
vt 1.000000 0.000000
vt 1.000000 1.000000
vt 1.000000 0.000000
vt 1.000000 1.000000
vt 1.000000 1.000000
vt 1.000000 1.000000
vt 1.000000 0.000000
vt 1.000000 1.000000
vt 1.000000 1.000000
vt 1.000000 1.000000
vt 1.000000 0.000000
vt 1.000000 1.000000
vt 1.000000 0.000000
vt 1.000000 0.000000
vt 1.000000 1.000000
vt 1.000000 1.000000
vt 1.000000 1.000000
vt 1.000000 1.000000
vt 1.000000 0.000000
vt 1.000000 1.000000
vt 1.000000 1.000000
vt 1.000000 0.000000
vt 1.000000 1.000000
vt 1.000000 1.000000
vt 1.000000 1.000000
vt 1.000000 0.000000
vt 1.000000 0.000000
vt 1.000000 1.000000
vt 1.000000 0.000000
vt 1.000000 1.000000
vt 1.000000 0.000000
vt 1.000000 1.000000
vt 1.000000 0.000000
vt 1.000000 1.000000
vt 1.000000 0.000000
vt 1.000000 1.000000
vt 1.000000 0.000000
vt 1.000000 1.000000
vt 1.000000 0.000000
vn 0.0464 0.4709 0.8810
vn 0.0865 0.8786 -0.4696
vn 0.0624 0.6332 0.7715
vn 0.0759 0.7708 -0.6326
vn 0.0759 0.7708 0.6326
vn 0.0624 0.6332 -0.7715
vn 0.0865 0.8786 0.4696
vn 0.0464 0.4709 -0.8810
vn 0.0938 0.9527 0.2890
vn 0.0286 0.2902 -0.9565
vn 0.0975 0.9904 0.0975
vn 0.0097 0.0980 0.9951
vn 0.0097 0.0980 -0.9951
vn 0.0975 0.9904 -0.0976
vn 0.0286 0.2902 0.9565
vn 0.0938 0.9527 -0.2890
vn 0.0846 0.2790 0.9565
vn 0.2779 0.9161 -0.2890
vn 0.1374 0.4528 0.8810
vn 0.2563 0.8448 -0.4696
vn 0.1847 0.6088 0.7715
vn 0.2248 0.7412 -0.6326
vn 0.2248 0.7412 0.6326
vn 0.1847 0.6088 -0.7715
vn 0.2563 0.8448 0.4696
vn 0.1374 0.4528 -0.8810
vn 0.2779 0.9161 0.2890
vn 0.0846 0.2790 -0.9565
vn 0.2889 0.9524 0.0975
vn 0.0286 0.0942 0.9951
vn 0.0286 0.0942 -0.9951
vn 0.2889 0.9524 -0.0976
vn 0.4162 0.7786 0.4696
vn 0.2231 0.4173 -0.8810
vn 0.4513 0.8443 0.2890
vn 0.1374 0.2571 -0.9565
vn 0.4691 0.8777 0.0975
vn 0.0464 0.0869 0.9951
vn 0.0464 0.0869 -0.9951
vn 0.4691 0.8777 -0.0975
vn 0.1374 0.2571 0.9565
vn 0.4513 0.8443 -0.2890
vn 0.2231 0.4173 0.8810
vn 0.4162 0.7786 -0.4696
vn 0.2999 0.5611 0.7715
vn 0.3651 0.6831 -0.6326
vn 0.3651 0.6831 0.6326
vn 0.2999 0.5611 -0.7715
vn 0.6073 0.7400 -0.2890
vn 0.3002 0.3658 0.8810
vn 0.5601 0.6825 -0.4696
vn 0.4036 0.4918 0.7715
vn 0.4913 0.5987 -0.6326
vn 0.4913 0.5987 0.6326
vn 0.4036 0.4918 -0.7715
vn 0.5601 0.6825 0.4696
vn 0.3002 0.3658 -0.8810
vn 0.6073 0.7400 0.2890
vn 0.1850 0.2254 -0.9565
vn 0.6314 0.7693 0.0976
vn 0.0625 0.0761 0.9951
vn 0.0625 0.0761 -0.9951
vn 0.6314 0.7693 -0.0975
vn 0.1850 0.2254 0.9565
vn 0.3658 0.3002 -0.8810
vn 0.7400 0.6073 0.2890
vn 0.2254 0.1850 -0.9566
vn 0.7693 0.6314 0.0976
vn 0.0761 0.0625 0.9951
vn 0.0761 0.0625 -0.9951
vn 0.7693 0.6314 -0.0976
vn 0.2254 0.1850 0.9565
vn 0.7400 0.6073 -0.2890
vn 0.3658 0.3002 0.8810
vn 0.6825 0.5601 -0.4696
vn 0.4918 0.4036 0.7715
vn 0.5987 0.4913 -0.6326
vn 0.5987 0.4913 0.6326
vn 0.4918 0.4036 -0.7715
vn 0.6825 0.5601 0.4696
vn 0.5556 0.8315 0.0000
vn 0.5556 -0.8315 0.0000
vn 0.5987 -0.4913 0.6326
vn 0.4918 -0.4036 -0.7715
vn 0.6825 -0.5601 0.4696
vn 0.3658 -0.3002 -0.8810
vn 0.7400 -0.6073 0.2890
vn 0.2254 -0.1850 -0.9565
vn 0.7693 -0.6314 0.0976
vn 0.0761 -0.0625 0.9951
vn 0.0761 -0.0625 -0.9951
vn 0.7693 -0.6314 -0.0976
vn 0.2254 -0.1850 0.9565
vn 0.7400 -0.6073 -0.2890
vn 0.3658 -0.3002 0.8810
vn 0.6825 -0.5601 -0.4696
vn 0.4918 -0.4036 0.7715
vn 0.5987 -0.4913 -0.6326
vn 0.6314 -0.7693 -0.0976
vn 0.1850 -0.2254 0.9565
vn 0.6073 -0.7400 -0.2890
vn 0.3002 -0.3658 0.8810
vn 0.5601 -0.6825 -0.4696
vn 0.4036 -0.4918 0.7715
vn 0.4913 -0.5987 -0.6326
vn 0.4913 -0.5987 0.6326
vn 0.4036 -0.4918 -0.7715
vn 0.5601 -0.6825 0.4696
vn 0.3002 -0.3658 -0.8810
vn 0.6073 -0.7400 0.2890
vn 0.1850 -0.2254 -0.9565
vn 0.6314 -0.7693 0.0976
vn 0.0625 -0.0761 0.9951
vn 0.0625 -0.0761 -0.9951
vn 0.2999 -0.5611 -0.7715
vn 0.4162 -0.7786 0.4696
vn 0.2231 -0.4173 -0.8810
vn 0.4513 -0.8443 0.2890
vn 0.1374 -0.2571 -0.9565
vn 0.4691 -0.8777 0.0976
vn 0.0464 -0.0869 0.9951
vn 0.0464 -0.0869 -0.9951
vn 0.4691 -0.8777 -0.0976
vn 0.1374 -0.2571 0.9565
vn 0.4513 -0.8443 -0.2890
vn 0.2231 -0.4173 0.8810
vn 0.4162 -0.7786 -0.4696
vn 0.2999 -0.5611 0.7715
vn 0.3651 -0.6831 -0.6326
vn 0.3651 -0.6831 0.6326
vn 0.0846 -0.2790 0.9565
vn 0.2779 -0.9161 -0.2890
vn 0.1374 -0.4528 0.8810
vn 0.2563 -0.8448 -0.4696
vn 0.1847 -0.6088 0.7715
vn 0.2248 -0.7412 -0.6326
vn 0.2248 -0.7412 0.6326
vn 0.1847 -0.6088 -0.7715
vn 0.2563 -0.8448 0.4696
vn 0.1374 -0.4528 -0.8810
vn 0.2779 -0.9161 0.2890
vn 0.0846 -0.2790 -0.9565
vn 0.2889 -0.9524 0.0976
vn 0.0286 -0.0942 0.9951
vn 0.0286 -0.0942 -0.9951
vn 0.2889 -0.9524 -0.0976
vn 0.0865 -0.8786 0.4696
vn 0.0464 -0.4709 -0.8810
vn 0.0938 -0.9527 0.2890
vn 0.0286 -0.2902 -0.9565
vn 0.0975 -0.9904 0.0976
vn 0.0097 -0.0980 0.9951
vn 0.0097 -0.0980 -0.9951
vn 0.0975 -0.9904 -0.0976
vn 0.0286 -0.2902 0.9565
vn 0.0938 -0.9527 -0.2890
vn 0.0464 -0.4709 0.8810
vn 0.0865 -0.8786 -0.4696
vn 0.0624 -0.6332 0.7715
vn 0.0759 -0.7708 -0.6326
vn 0.0759 -0.7708 0.6326
vn 0.0624 -0.6332 -0.7715
vn -0.0938 -0.9527 -0.2890
vn -0.0464 -0.4709 0.8810
vn -0.0865 -0.8786 -0.4696
vn -0.0624 -0.6332 0.7715
vn -0.0759 -0.7708 -0.6326
vn -0.0759 -0.7708 0.6326
vn -0.0624 -0.6332 -0.7715
vn -0.0865 -0.8786 0.4696
vn -0.0464 -0.4709 -0.8810
vn -0.0938 -0.9527 0.2890
vn -0.0286 -0.2902 -0.9565
vn -0.0975 -0.9904 0.0976
vn -0.0097 -0.0980 0.9951
vn -0.0097 -0.0980 -0.9951
vn -0.0975 -0.9904 -0.0976
vn -0.0286 -0.2902 0.9565
vn -0.1374 -0.4528 -0.8810
vn -0.2779 -0.9161 0.2890
vn -0.0846 -0.2790 -0.9565
vn -0.2889 -0.9524 0.0976
vn -0.0286 -0.0942 0.9951
vn -0.0286 -0.0942 -0.9951
vn -0.2889 -0.9524 -0.0976
vn -0.0846 -0.2790 0.9565
vn -0.2779 -0.9161 -0.2890
vn -0.1374 -0.4528 0.8810
vn -0.2563 -0.8448 -0.4696
vn -0.1847 -0.6088 0.7715
vn -0.2248 -0.7412 -0.6326
vn -0.2248 -0.7412 0.6326
vn -0.1847 -0.6088 -0.7715
vn -0.2563 -0.8448 0.4696
vn -0.4162 -0.7786 -0.4696
vn -0.2999 -0.5611 0.7715
vn -0.3651 -0.6831 -0.6326
vn -0.3651 -0.6831 0.6326
vn -0.2999 -0.5611 -0.7715
vn -0.4162 -0.7786 0.4696
vn -0.2230 -0.4173 -0.8810
vn -0.4513 -0.8443 0.2890
vn -0.1374 -0.2571 -0.9565
vn -0.4691 -0.8777 0.0976
vn -0.0464 -0.0869 0.9951
vn -0.0464 -0.0869 -0.9951
vn -0.4691 -0.8777 -0.0976
vn -0.1374 -0.2571 0.9565
vn -0.4513 -0.8443 -0.2890
vn -0.2230 -0.4173 0.8810
vn -0.1850 -0.2254 -0.9565
vn -0.6314 -0.7693 0.0976
vn -0.0625 -0.0761 0.9951
vn -0.0625 -0.0761 -0.9951
vn -0.6314 -0.7693 -0.0976
vn -0.1850 -0.2254 0.9565
vn -0.6073 -0.7400 -0.2890
vn -0.3002 -0.3658 0.8810
vn -0.5601 -0.6825 -0.4696
vn -0.4036 -0.4918 0.7715
vn -0.4913 -0.5987 -0.6326
vn -0.4913 -0.5987 0.6326
vn -0.4036 -0.4918 -0.7715
vn -0.5601 -0.6825 0.4696
vn -0.3002 -0.3658 -0.8810
vn -0.6073 -0.7400 0.2890
vn -0.4918 -0.4036 0.7715
vn -0.5987 -0.4913 -0.6326
vn -0.5987 -0.4913 0.6326
vn -0.4918 -0.4036 -0.7715
vn -0.6825 -0.5601 0.4696
vn -0.3658 -0.3002 -0.8810
vn -0.7400 -0.6073 0.2890
vn -0.2254 -0.1850 -0.9565
vn -0.7693 -0.6314 0.0976
vn -0.0761 -0.0625 0.9951
vn -0.0761 -0.0625 -0.9951
vn -0.7693 -0.6314 -0.0976
vn -0.2254 -0.1850 0.9565
vn -0.7400 -0.6073 -0.2890
vn -0.3658 -0.3002 0.8810
vn -0.6825 -0.5601 -0.4696
vn -0.8777 -0.4691 0.0976
vn -0.0869 -0.0464 0.9951
vn -0.0869 -0.0464 -0.9951
vn -0.8777 -0.4691 -0.0976
vn -0.2571 -0.1374 0.9565
vn -0.8443 -0.4513 -0.2890
vn -0.4173 -0.2230 0.8810
vn -0.7786 -0.4162 -0.4696
vn -0.5611 -0.2999 0.7715
vn -0.6831 -0.3651 -0.6326
vn -0.6831 -0.3651 0.6326
vn -0.5611 -0.2999 -0.7715
vn -0.7786 -0.4162 0.4696
vn -0.4173 -0.2230 -0.8810
vn -0.8443 -0.4513 0.2890
vn -0.2571 -0.1374 -0.9566
vn -0.7412 -0.2248 -0.6326
vn -0.7412 -0.2248 0.6326
vn -0.6088 -0.1847 -0.7715
vn -0.8448 -0.2563 0.4696
vn -0.4528 -0.1374 -0.8810
vn -0.9161 -0.2779 0.2890
vn -0.2790 -0.0846 -0.9565
vn -0.9524 -0.2889 0.0976
vn -0.0942 -0.0286 0.9951
vn -0.0942 -0.0286 -0.9951
vn -0.9524 -0.2889 -0.0976
vn -0.2790 -0.0846 0.9565
vn -0.9161 -0.2779 -0.2890
vn -0.4528 -0.1374 0.8810
vn -0.8448 -0.2563 -0.4696
vn -0.6088 -0.1847 0.7715
vn -0.0980 -0.0097 0.9951
vn -0.0980 -0.0097 -0.9951
vn -0.9904 -0.0975 -0.0976
vn -0.2902 -0.0286 0.9565
vn -0.9527 -0.0938 -0.2890
vn -0.4709 -0.0464 0.8810
vn -0.8786 -0.0865 -0.4696
vn -0.6332 -0.0624 0.7715
vn -0.7708 -0.0759 -0.6326
vn -0.7708 -0.0759 0.6326
vn -0.6332 -0.0624 -0.7715
vn -0.8786 -0.0865 0.4696
vn -0.4709 -0.0464 -0.8810
vn -0.9527 -0.0938 0.2890
vn -0.2902 -0.0286 -0.9565
vn -0.9904 -0.0975 0.0976
vn -0.7708 0.0759 0.6326
vn -0.6332 0.0624 -0.7715
vn -0.8786 0.0865 0.4696
vn -0.4709 0.0464 -0.8810
vn -0.9527 0.0938 0.2890
vn -0.2902 0.0286 -0.9565
vn -0.9904 0.0976 0.0976
vn -0.0980 0.0097 0.9951
vn -0.0980 0.0097 -0.9951
vn -0.9904 0.0975 -0.0976
vn -0.2902 0.0286 0.9565
vn -0.9527 0.0938 -0.2890
vn -0.4709 0.0464 0.8810
vn -0.8786 0.0865 -0.4696
vn -0.6332 0.0624 0.7715
vn -0.7708 0.0759 -0.6326
vn -0.9524 0.2889 -0.0976
vn -0.2790 0.0846 0.9565
vn -0.9161 0.2779 -0.2890
vn -0.4528 0.1374 0.8810
vn -0.8448 0.2563 -0.4696
vn -0.6088 0.1847 0.7715
vn -0.7412 0.2248 -0.6326
vn -0.7412 0.2248 0.6326
vn -0.6088 0.1847 -0.7715
vn -0.8448 0.2563 0.4696
vn -0.4528 0.1374 -0.8810
vn -0.9161 0.2779 0.2890
vn -0.2790 0.0846 -0.9565
vn -0.9524 0.2889 0.0976
vn -0.0942 0.0286 0.9951
vn -0.0942 0.0286 -0.9951
vn -0.5611 0.2999 -0.7715
vn -0.7786 0.4162 0.4696
vn -0.4173 0.2231 -0.8810
vn -0.8443 0.4513 0.2890
vn -0.2571 0.1374 -0.9565
vn -0.8777 0.4691 0.0976
vn -0.0869 0.0464 0.9951
vn -0.0869 0.0464 -0.9951
vn -0.8777 0.4691 -0.0976
vn -0.2571 0.1374 0.9565
vn -0.8443 0.4513 -0.2890
vn -0.4173 0.2230 0.8810
vn -0.7786 0.4162 -0.4696
vn -0.5611 0.2999 0.7715
vn -0.6831 0.3651 -0.6326
vn -0.6831 0.3651 0.6326
vn -0.7400 0.6073 -0.2890
vn -0.3658 0.3002 0.8810
vn -0.6825 0.5601 -0.4696
vn -0.4918 0.4036 0.7715
vn -0.5987 0.4913 -0.6326
vn -0.5987 0.4913 0.6326
vn -0.4918 0.4036 -0.7715
vn -0.6825 0.5601 0.4696
vn -0.3658 0.3002 -0.8810
vn -0.7400 0.6073 0.2890
vn -0.2254 0.1850 -0.9565
vn -0.7693 0.6314 0.0976
vn -0.0761 0.0625 0.9951
vn -0.0761 0.0625 -0.9951
vn -0.7693 0.6314 -0.0976
vn -0.2254 0.1850 0.9565
vn -0.3002 0.3658 -0.8810
vn -0.6073 0.7400 0.2890
vn -0.1850 0.2254 -0.9565
vn -0.6314 0.7693 0.0976
vn -0.0625 0.0761 0.9951
vn -0.0625 0.0761 -0.9951
vn -0.6314 0.7693 -0.0976
vn -0.1850 0.2254 0.9565
vn -0.6073 0.7400 -0.2890
vn -0.3002 0.3658 0.8810
vn -0.5601 0.6825 -0.4696
vn -0.4036 0.4918 0.7715
vn -0.4913 0.5987 -0.6326
vn -0.4913 0.5987 0.6326
vn -0.4036 0.4918 -0.7715
vn -0.5601 0.6825 0.4696
vn -0.2231 0.4173 0.8810
vn -0.4162 0.7786 -0.4696
vn -0.2999 0.5611 0.7715
vn -0.3651 0.6831 -0.6326
vn -0.3651 0.6831 0.6326
vn -0.2999 0.5611 -0.7715
vn -0.4162 0.7786 0.4696
vn -0.2230 0.4173 -0.8810
vn -0.4513 0.8443 0.2890
vn -0.1374 0.2571 -0.9565
vn -0.4691 0.8777 0.0976
vn -0.0464 0.0869 0.9951
vn -0.0464 0.0869 -0.9951
vn -0.4691 0.8777 -0.0976
vn -0.1374 0.2571 0.9565
vn -0.4513 0.8443 -0.2890
vn -0.2779 0.9161 0.2890
vn -0.0846 0.2790 -0.9565
vn -0.2889 0.9524 0.0976
vn -0.0286 0.0942 0.9951
vn -0.0286 0.0942 -0.9951
vn -0.2889 0.9524 -0.0976
vn -0.0846 0.2790 0.9565
vn -0.2779 0.9161 -0.2890
vn -0.1374 0.4528 0.8810
vn -0.2563 0.8448 -0.4696
vn -0.1847 0.6088 0.7715
vn -0.2248 0.7412 -0.6326
vn -0.2248 0.7412 0.6326
vn -0.1847 0.6088 -0.7715
vn -0.2563 0.8448 0.4696
vn -0.1374 0.4528 -0.8810
vn -0.0865 0.8786 -0.4696
vn -0.0624 0.6332 0.7715
vn -0.0759 0.7708 -0.6326
vn -0.0759 0.7708 0.6326
vn -0.0624 0.6332 -0.7715
vn -0.0865 0.8786 0.4696
vn -0.0464 0.4709 -0.8810
vn -0.0938 0.9527 0.2890
vn -0.0286 0.2902 -0.9565
vn -0.0976 0.9904 0.0975
vn -0.0097 0.0980 0.9951
vn -0.0097 0.0980 -0.9951
vn -0.0976 0.9904 -0.0976
vn -0.0286 0.2902 0.9565
vn -0.0938 0.9527 -0.2890
vn -0.0464 0.4709 0.8810
vn 0.0975 0.9904 0.0976
vn 0.0975 0.9904 -0.0975
vn 0.2889 0.9524 0.0976
vn 0.2889 0.9524 -0.0975
vn 0.2230 0.4173 -0.8810
vn 0.6314 0.7693 0.0975
vn 0.6314 0.7693 -0.0976
vn 0.2254 0.1850 -0.9565
vn -0.2231 -0.4173 -0.8810
vn -0.2231 -0.4173 0.8810
vn -0.2571 -0.1374 -0.9565
vn -0.9904 0.0975 0.0976
vn -0.9904 0.0976 -0.0976
vn -0.2571 0.1374 0.9566
vn -0.4173 0.2231 0.8810
vn -0.2230 0.4173 0.8810
vn -0.2231 0.4173 -0.8810
vn -0.0976 0.9904 0.0976
vn -0.0976 0.9904 -0.0975
usemtl None
s off
f 3/1/1 12/2/1 13/3/1
f 420/4/2 21/5/2 421/6/2
f 3/7/3 14/8/3 4/9/3
f 421/10/4 22/11/4 422/12/4
f 4/13/5 15/14/5 5/15/5
f 422/16/6 23/17/6 10/18/6
f 5/19/7 16/20/7 6/21/7
f 10/22/8 24/23/8 423/24/8
f 6/25/9 17/26/9 7/27/9
f 423/28/10 25/29/10 424/30/10
f 7/31/11 18/32/11 8/33/11
f 1/34/12 239/35/12 11/36/12
f 148/37/13 424/38/13 25/39/13
f 8/40/14 19/41/14 9/42/14
f 1/43/15 12/44/15 2/45/15
f 9/46/16 20/47/16 420/48/16
f 11/49/17 27/50/17 12/51/17
f 20/52/18 34/53/18 35/54/18
f 12/55/19 28/56/19 13/57/19
f 20/58/20 36/59/20 21/60/20
f 13/61/21 29/62/21 14/63/21
f 22/64/22 36/65/22 37/66/22
f 14/67/23 30/68/23 15/69/23
f 22/70/24 38/71/24 23/72/24
f 15/73/25 31/74/25 16/75/25
f 23/76/26 39/77/26 24/78/26
f 16/79/27 32/80/27 17/81/27
f 24/82/28 40/83/28 25/84/28
f 17/85/29 33/86/29 18/87/29
f 11/88/30 239/35/30 26/89/30
f 148/37/31 25/90/31 40/91/31
f 19/92/32 33/93/32 34/94/32
f 30/95/33 46/96/33 31/97/33
f 38/98/34 54/99/34 39/100/34
f 32/101/35 46/102/35 47/103/35
f 39/104/36 55/105/36 40/106/36
f 32/107/37 48/108/37 33/109/37
f 26/110/38 239/35/38 41/111/38
f 148/37/39 40/112/39 55/113/39
f 33/114/40 49/115/40 34/116/40
f 26/117/41 42/118/41 27/119/41
f 34/120/42 50/121/42 35/122/42
f 27/123/43 43/124/43 28/125/43
f 36/126/44 50/127/44 51/128/44
f 28/129/45 44/130/45 29/131/45
f 37/132/46 51/133/46 52/134/46
f 29/135/47 45/136/47 30/137/47
f 37/138/48 53/139/48 38/140/48
f 49/141/49 65/142/49 50/143/49
f 42/144/50 58/145/50 43/146/50
f 51/147/51 65/148/51 66/149/51
f 43/150/52 59/151/52 44/152/52
f 51/153/53 67/154/53 52/155/53
f 44/156/54 60/157/54 45/158/54
f 52/159/55 68/160/55 53/161/55
f 45/162/56 61/163/56 46/164/56
f 53/165/57 69/166/57 54/167/57
f 46/168/58 62/169/58 47/170/58
f 54/171/59 70/172/59 55/173/59
f 48/174/60 62/175/60 63/176/60
f 41/177/61 239/35/61 56/178/61
f 148/37/62 55/179/62 70/180/62
f 48/181/63 64/182/63 49/183/63
f 41/184/64 57/185/64 42/186/64
f 69/187/65 83/188/65 84/189/65
f 61/190/66 77/191/66 62/192/66
f 69/193/67 85/194/67 70/195/67
f 63/196/68 77/197/68 78/198/68
f 56/199/69 239/35/69 71/200/69
f 148/37/70 70/201/70 85/202/70
f 63/203/71 79/204/71 64/205/71
f 56/206/72 72/207/72 57/208/72
f 64/209/73 80/210/73 65/211/73
f 57/212/74 73/213/74 58/214/74
f 66/215/75 80/216/75 81/217/75
f 58/218/76 74/219/76 59/220/76
f 66/221/77 82/222/77 67/223/77
f 60/224/78 74/225/78 75/226/78
f 68/227/79 82/228/79 83/229/79
f 60/230/80 76/231/80 61/232/80
f 101/233/81 97/234/81 93/235/81
f 104/236/81 108/237/81 112/238/81
f 239/35/82 79/239/82 75/240/82
f 106/241/83 122/242/83 107/243/83
f 115/244/84 129/245/84 130/246/84
f 107/247/85 123/248/85 108/249/85
f 115/250/86 131/251/86 116/252/86
f 109/253/87 123/254/87 124/255/87
f 117/256/88 131/257/88 132/258/88
f 109/259/89 125/260/89 110/261/89
f 103/262/90 239/35/90 118/263/90
f 148/37/91 117/264/91 132/265/91
f 110/266/92 126/267/92 111/268/92
f 103/269/93 119/270/93 104/271/93
f 111/272/94 127/273/94 112/274/94
f 104/236/95 120/275/95 105/276/95
f 112/238/96 128/277/96 113/278/96
f 105/279/97 121/280/97 106/281/97
f 113/282/98 129/283/98 114/284/98
f 126/285/99 140/286/99 141/287/99
f 118/288/100 134/289/100 119/290/100
f 126/291/101 142/292/101 127/293/101
f 119/294/102 135/295/102 120/296/102
f 128/297/103 142/298/103 143/299/103
f 121/300/104 135/301/104 136/302/104
f 128/303/105 144/304/105 129/305/105
f 122/306/106 136/307/106 137/308/106
f 130/309/107 144/310/107 145/311/107
f 122/312/108 138/313/108 123/314/108
f 130/315/109 146/316/109 131/317/109
f 124/318/110 138/319/110 139/320/110
f 132/321/111 146/322/111 147/323/111
f 124/324/112 140/325/112 125/326/112
f 118/327/113 239/35/113 133/328/113
f 148/37/114 132/329/114 147/330/114
f 145/331/115 160/332/115 161/333/115
f 137/334/116 154/335/116 138/336/116
f 145/337/117 162/338/117 146/339/117
f 139/340/118 154/341/118 155/342/118
f 146/343/119 163/344/119 147/345/119
f 139/346/120 156/347/120 140/348/120
f 133/349/121 239/35/121 149/350/121
f 148/37/122 147/351/122 163/352/122
f 140/353/123 157/354/123 141/355/123
f 133/356/124 150/357/124 134/358/124
f 141/359/125 158/360/125 142/361/125
f 135/362/126 150/363/126 151/364/126
f 143/365/127 158/366/127 159/367/127
f 135/368/128 152/369/128 136/370/128
f 143/371/129 160/372/129 144/373/129
f 136/374/130 153/375/130 137/376/130
f 149/377/131 165/378/131 150/379/131
f 157/380/132 173/381/132 158/382/132
f 150/383/133 166/384/133 151/385/133
f 159/386/134 173/387/134 174/388/134
f 151/389/135 167/390/135 152/391/135
f 159/392/136 175/393/136 160/394/136
f 152/395/137 168/396/137 153/397/137
f 160/398/138 176/399/138 161/400/138
f 153/401/139 169/402/139 154/403/139
f 161/404/140 177/405/140 162/406/140
f 155/407/141 169/408/141 170/409/141
f 163/410/142 177/411/142 178/412/142
f 155/413/143 171/414/143 156/415/143
f 149/416/144 239/35/144 164/417/144
f 148/37/145 163/418/145 178/419/145
f 156/420/146 172/421/146 157/422/146
f 168/423/147 184/424/147 169/425/147
f 176/426/148 192/427/148 177/428/148
f 170/429/149 184/430/149 185/431/149
f 178/432/150 192/433/150 193/434/150
f 170/435/151 186/436/151 171/437/151
f 164/438/152 239/35/152 179/439/152
f 148/37/153 178/440/153 193/441/153
f 171/442/154 187/443/154 172/444/154
f 164/445/155 180/446/155 165/447/155
f 172/448/156 188/449/156 173/450/156
f 166/451/157 180/452/157 181/453/157
f 174/454/158 188/455/158 189/456/158
f 167/457/159 181/458/159 182/459/159
f 174/460/160 190/461/160 175/462/160
f 167/463/161 183/464/161 168/465/161
f 176/466/162 190/467/162 191/468/162
f 187/469/163 203/470/163 188/471/163
f 180/472/164 196/473/164 181/474/164
f 189/475/165 203/476/165 204/477/165
f 182/478/166 196/479/166 197/480/166
f 189/481/167 205/482/167 190/483/167
f 183/484/168 197/485/168 198/486/168
f 190/487/169 206/488/169 191/489/169
f 183/490/170 199/491/170 184/492/170
f 191/493/171 207/494/171 192/495/171
f 185/496/172 199/497/172 200/498/172
f 192/499/173 208/500/173 193/501/173
f 185/502/174 201/503/174 186/504/174
f 179/505/175 239/35/175 194/506/175
f 148/37/176 193/507/176 208/508/176
f 186/509/177 202/510/177 187/511/177
f 179/512/178 195/513/178 180/514/178
f 207/515/179 221/516/179 222/517/179
f 200/518/180 214/519/180 215/520/180
f 208/521/181 222/522/181 223/523/181
f 200/524/182 216/525/182 201/526/182
f 194/527/183 239/35/183 209/528/183
f 148/37/184 208/529/184 223/530/184
f 202/531/185 216/532/185 217/533/185
f 194/534/186 210/535/186 195/536/186
f 202/537/187 218/538/187 203/539/187
f 195/540/188 211/541/188 196/542/188
f 204/543/189 218/544/189 219/545/189
f 197/546/190 211/547/190 212/548/190
f 204/549/191 220/550/191 205/551/191
f 198/552/192 212/553/192 213/554/192
f 205/555/193 221/556/193 206/557/193
f 198/558/194 214/559/194 199/560/194
f 219/561/195 233/562/195 234/563/195
f 211/564/196 227/565/196 212/566/196
f 219/567/197 235/568/197 220/569/197
f 213/570/198 227/571/198 228/572/198
f 221/573/199 235/574/199 236/575/199
f 213/576/200 229/577/200 214/578/200
f 221/579/201 237/580/201 222/581/201
f 215/582/202 229/583/202 230/584/202
f 223/585/203 237/586/203 238/587/203
f 215/588/204 231/589/204 216/590/204
f 209/591/205 239/35/205 224/592/205
f 148/37/206 223/593/206 238/594/206
f 216/595/207 232/596/207 217/597/207
f 209/598/208 225/599/208 210/600/208
f 217/601/209 233/602/209 218/603/209
f 210/604/210 226/605/210 211/606/210
f 237/607/211 254/608/211 238/609/211
f 231/610/212 246/611/212 247/612/212
f 224/613/213 239/35/213 240/614/213
f 148/37/214 238/615/214 254/616/214
f 231/617/215 248/618/215 232/619/215
f 224/620/216 241/621/216 225/622/216
f 232/623/217 249/624/217 233/625/217
f 225/626/218 242/627/218 226/628/218
f 234/629/219 249/630/219 250/631/219
f 227/632/220 242/633/220 243/634/220
f 234/635/221 251/636/221 235/637/221
f 228/638/222 243/639/222 244/640/222
f 235/641/223 252/642/223 236/643/223
f 228/644/224 245/645/224 229/646/224
f 236/647/225 253/648/225 237/649/225
f 230/650/226 245/651/226 246/652/226
f 243/653/227 257/654/227 258/655/227
f 250/656/228 266/657/228 251/658/228
f 244/659/229 258/660/229 259/661/229
f 251/662/230 267/663/230 252/664/230
f 244/665/231 260/666/231 245/667/231
f 253/668/232 267/669/232 268/670/232
f 246/671/233 260/672/233 261/673/233
f 253/674/234 269/675/234 254/676/234
f 246/677/235 262/678/235 247/679/235
f 240/680/236 239/35/236 255/681/236
f 148/37/237 254/682/237 269/683/237
f 247/684/238 263/685/238 248/686/238
f 240/687/239 256/688/239 241/689/239
f 248/690/240 264/691/240 249/692/240
f 241/693/241 257/694/241 242/695/241
f 250/696/242 264/697/242 265/698/242
f 261/699/243 277/700/243 262/701/243
f 255/702/244 239/35/244 270/703/244
f 148/37/245 269/704/245 284/705/245
f 262/706/246 278/707/246 263/708/246
f 255/709/247 271/710/247 256/711/247
f 263/712/248 279/713/248 264/714/248
f 256/715/249 272/716/249 257/717/249
f 265/718/250 279/719/250 280/720/250
f 258/721/251 272/722/251 273/723/251
f 266/724/252 280/725/252 281/726/252
f 259/727/253 273/728/253 274/729/253
f 266/730/254 282/731/254 267/732/254
f 259/733/255 275/734/255 260/735/255
f 268/736/256 282/737/256 283/738/256
f 261/739/257 275/740/257 276/741/257
f 269/742/258 283/743/258 284/744/258
f 280/745/259 296/746/259 281/747/259
f 274/748/260 288/749/260 289/750/260
f 281/751/261 297/752/261 282/753/261
f 274/754/262 290/755/262 275/756/262
f 283/757/263 297/758/263 298/759/263
f 276/760/264 290/761/264 291/762/264
f 283/763/265 299/764/265 284/765/265
f 276/766/266 292/767/266 277/768/266
f 270/769/267 239/35/267 285/770/267
f 148/37/268 284/771/268 299/772/268
f 277/773/269 293/774/269 278/775/269
f 271/776/270 285/770/270 286/777/270
f 278/778/271 294/779/271 279/780/271
f 271/781/272 287/782/272 272/783/272
f 280/784/273 294/785/273 295/786/273
f 273/787/274 287/788/274 288/789/274
f 285/790/275 239/35/275 300/791/275
f 148/37/276 299/792/276 314/793/276
f 293/794/277 307/795/277 308/796/277
f 286/797/278 300/791/278 301/798/278
f 293/799/279 309/800/279 294/801/279
f 286/802/280 302/803/280 287/804/280
f 295/805/281 309/806/281 310/807/281
f 288/808/282 302/809/282 303/810/282
f 295/811/283 311/812/283 296/813/283
f 288/814/284 304/815/284 289/816/284
f 297/817/285 311/818/285 312/819/285
f 289/820/286 305/821/286 290/822/286
f 298/823/287 312/824/287 313/825/287
f 291/826/288 305/827/288 306/828/288
f 298/829/289 314/830/289 299/831/289
f 291/832/290 307/833/290 292/834/290
f 304/835/291 318/836/291 319/837/291
f 311/838/292 327/839/292 312/840/292
f 304/841/293 320/842/293 305/843/293
f 313/844/294 327/845/294 328/846/294
f 306/847/295 320/848/295 321/849/295
f 313/850/296 329/851/296 314/852/296
f 306/853/297 322/854/297 307/855/297
f 300/856/298 239/35/298 315/857/298
f 148/37/299 314/858/299 329/859/299
f 308/860/300 322/861/300 323/862/300
f 301/863/301 315/857/301 316/864/301
f 308/865/302 324/866/302 309/867/302
f 301/868/303 317/869/303 302/870/303
f 310/871/304 324/872/304 325/873/304
f 303/874/305 317/875/305 318/876/305
f 310/877/306 326/878/306 311/879/306
f 322/880/307 338/881/307 323/882/307
f 315/883/308 331/884/308 316/885/308
f 323/886/309 339/887/309 324/888/309
f 316/889/310 332/890/310 317/891/310
f 325/892/311 339/893/311 340/894/311
f 318/895/312 332/896/312 333/897/312
f 325/898/313 341/899/313 326/900/313
f 318/901/314 334/902/314 319/903/314
f 326/904/315 342/905/315 327/906/315
f 319/907/316 335/908/316 320/909/316
f 328/910/317 342/911/317 343/912/317
f 321/913/318 335/914/318 336/915/318
f 328/916/319 344/917/319 329/918/319
f 321/919/320 337/920/320 322/921/320
f 315/922/321 239/35/321 330/923/321
f 148/37/322 329/924/322 344/925/322
f 341/926/323 357/927/323 342/928/323
f 334/929/324 350/930/324 335/931/324
f 343/932/325 357/933/325 358/934/325
f 336/935/326 350/936/326 351/937/326
f 343/938/327 359/939/327 344/940/327
f 336/941/328 352/942/328 337/943/328
f 330/944/329 239/35/329 345/945/329
f 148/37/330 344/946/330 359/947/330
f 338/948/331 352/949/331 353/950/331
f 330/951/332 346/952/332 331/953/332
f 338/954/333 354/955/333 339/956/333
f 332/957/334 346/958/334 347/959/334
f 340/960/335 354/961/335 355/962/335
f 333/963/336 347/964/336 348/965/336
f 340/966/337 356/967/337 341/968/337
f 334/969/338 348/970/338 349/971/338
f 353/972/339 369/973/339 354/974/339
f 346/975/340 362/976/340 347/977/340
f 355/978/341 369/979/341 370/980/341
f 347/981/342 363/982/342 348/983/342
f 355/984/343 371/985/343 356/986/343
f 349/987/344 363/988/344 364/989/344
f 356/990/345 372/991/345 357/992/345
f 349/993/346 365/994/346 350/995/346
f 357/996/347 373/997/347 358/998/347
f 351/999/348 365/1000/348 366/1001/348
f 358/1002/349 374/1003/349 359/1004/349
f 351/1005/350 367/1006/350 352/1007/350
f 345/1008/351 239/35/351 360/1009/351
f 148/37/352 359/1010/352 374/1011/352
f 353/1012/353 367/1013/353 368/1014/353
f 345/1015/354 361/1016/354 346/1017/354
f 372/1018/355 388/1019/355 373/1020/355
f 366/1021/356 380/1022/356 381/1023/356
f 373/1024/357 389/1025/357 374/1026/357
f 367/1027/358 381/1028/358 382/1029/358
f 360/1030/359 239/35/359 375/1031/359
f 148/37/360 374/1032/360 389/1033/360
f 367/1034/361 383/1035/361 368/1036/361
f 360/1037/362 376/1038/362 361/1039/362
f 368/1040/363 384/1041/363 369/1042/363
f 361/1043/364 377/1044/364 362/1045/364
f 370/1046/365 384/1047/365 385/1048/365
f 362/1049/366 378/1050/366 363/1051/366
f 370/1052/367 386/1053/367 371/1054/367
f 364/1055/368 378/1056/368 379/1057/368
f 372/1058/369 386/1059/369 387/1060/369
f 364/1061/370 380/1062/370 365/1063/370
f 377/1064/371 391/1065/371 392/1066/371
f 385/1067/372 399/1068/372 400/1069/372
f 378/1070/373 392/1071/373 393/1072/373
f 385/1073/374 401/1074/374 386/1075/374
f 379/1076/375 393/1077/375 394/1078/375
f 386/1079/376 402/1080/376 387/1081/376
f 379/1082/377 395/1083/377 380/1084/377
f 387/1085/378 403/1086/378 388/1087/378
f 381/1088/379 395/1089/379 396/1090/379
f 388/1091/380 404/1092/380 389/1093/380
f 381/1094/381 397/1095/381 382/1096/381
f 375/1097/382 239/35/382 390/1098/382
f 148/37/383 389/1099/383 404/1100/383
f 382/1101/384 398/1102/384 383/1103/384
f 376/1104/385 390/1098/385 391/1105/385
f 383/1106/386 399/1107/386 384/1108/386
f 396/1109/387 410/1110/387 411/1111/387
f 404/1112/388 418/1113/388 419/1114/388
f 396/1115/389 412/1116/389 397/1117/389
f 390/1118/390 239/35/390 405/1119/390
f 148/37/391 404/1120/391 419/1121/391
f 397/1122/392 413/1123/392 398/1124/392
f 390/1125/393 406/1126/393 391/1127/393
f 398/1128/394 414/1129/394 399/1130/394
f 391/1131/395 407/1132/395 392/1133/395
f 400/1134/396 414/1135/396 415/1136/396
f 392/1137/397 408/1138/397 393/1139/397
f 400/1140/398 416/1141/398 401/1142/398
f 394/1143/399 408/1144/399 409/1145/399
f 401/1146/400 417/1147/400 402/1148/400
f 394/1149/401 410/1150/401 395/1151/401
f 402/1152/402 418/1153/402 403/1154/402
f 415/1155/403 420/1156/403 421/1157/403
f 408/1158/404 3/1159/404 4/1160/404
f 415/1161/405 422/1162/405 416/1163/405
f 409/1164/406 4/1165/406 5/1166/406
f 416/1167/407 10/1168/407 417/1169/407
f 410/1170/408 5/1171/408 6/1172/408
f 417/1173/409 423/1174/409 418/1175/409
f 411/1176/410 6/1177/410 7/1178/410
f 418/1179/411 424/1180/411 419/1181/411
f 412/1182/412 7/1183/412 8/1184/412
f 405/1185/413 239/35/413 1/1186/413
f 148/37/414 419/1187/414 424/1188/414
f 412/1189/415 9/1190/415 413/1191/415
f 406/1192/416 1/1186/416 2/1193/416
f 413/1194/417 420/1195/417 414/1196/417
f 407/1197/418 2/1198/418 3/1199/418
f 3/1/1 2/1200/1 12/2/1
f 420/4/2 20/1201/2 21/5/2
f 3/7/3 13/1202/3 14/8/3
f 421/10/4 21/1203/4 22/11/4
f 4/13/5 14/1204/5 15/14/5
f 422/16/6 22/1205/6 23/17/6
f 5/19/7 15/1206/7 16/20/7
f 10/22/8 23/1207/8 24/23/8
f 6/25/9 16/1208/9 17/26/9
f 423/28/10 24/1209/10 25/29/10
f 7/31/419 17/1210/419 18/32/419
f 8/40/420 18/1211/420 19/41/420
f 1/43/15 11/36/15 12/44/15
f 9/46/16 19/1212/16 20/47/16
f 11/49/17 26/89/17 27/50/17
f 20/52/18 19/1213/18 34/53/18
f 12/55/19 27/1214/19 28/56/19
f 20/58/20 35/1215/20 36/59/20
f 13/61/21 28/1216/21 29/62/21
f 22/64/22 21/1217/22 36/65/22
f 14/67/23 29/1218/23 30/68/23
f 22/70/24 37/1219/24 38/71/24
f 15/73/25 30/1220/25 31/74/25
f 23/76/26 38/1221/26 39/77/26
f 16/79/27 31/1222/27 32/80/27
f 24/82/28 39/1223/28 40/83/28
f 17/85/421 32/1224/421 33/86/421
f 19/92/422 18/1225/422 33/93/422
f 30/95/33 45/1226/33 46/96/33
f 38/98/423 53/1227/423 54/99/423
f 32/101/35 31/1228/35 46/102/35
f 39/104/36 54/1229/36 55/105/36
f 32/107/37 47/1230/37 48/108/37
f 33/114/40 48/1231/40 49/115/40
f 26/117/41 41/111/41 42/118/41
f 34/120/42 49/1232/42 50/121/42
f 27/123/43 42/1233/43 43/124/43
f 36/126/44 35/1234/44 50/127/44
f 28/129/45 43/1235/45 44/130/45
f 37/132/46 36/1236/46 51/133/46
f 29/135/47 44/1237/47 45/136/47
f 37/138/48 52/1238/48 53/139/48
f 49/141/49 64/1239/49 65/142/49
f 42/144/50 57/1240/50 58/145/50
f 51/147/51 50/1241/51 65/148/51
f 43/150/52 58/1242/52 59/151/52
f 51/153/53 66/1243/53 67/154/53
f 44/156/54 59/1244/54 60/157/54
f 52/159/55 67/1245/55 68/160/55
f 45/162/56 60/1246/56 61/163/56
f 53/165/57 68/1247/57 69/166/57
f 46/168/58 61/1248/58 62/169/58
f 54/171/59 69/1249/59 70/172/59
f 48/174/424 47/1250/424 62/175/424
f 48/181/425 63/1251/425 64/182/425
f 41/184/64 56/178/64 57/185/64
f 69/187/65 68/1252/65 83/188/65
f 61/190/66 76/1253/66 77/191/66
f 69/193/426 84/1254/426 85/194/426
f 63/196/68 62/1255/68 77/197/68
f 63/203/71 78/1256/71 79/204/71
f 56/206/72 71/200/72 72/207/72
f 64/209/73 79/239/73 80/210/73
f 57/212/74 72/1257/74 73/213/74
f 66/215/75 65/1258/75 80/216/75
f 58/218/76 73/1259/76 74/219/76
f 66/221/77 81/1260/77 82/222/77
f 60/224/78 59/1261/78 74/225/78
f 68/227/79 67/1262/79 82/228/79
f 60/230/80 75/240/80 76/231/80
f 86/1263/81 102/1264/81 101/233/81
f 101/233/81 100/1265/81 99/1266/81
f 99/1266/81 98/1267/81 101/233/81
f 98/1267/81 97/234/81 101/233/81
f 97/234/81 96/1268/81 95/1269/81
f 95/1269/81 94/1270/81 97/234/81
f 94/1270/81 93/235/81 97/234/81
f 93/235/81 92/1271/81 91/1272/81
f 91/1272/81 90/1273/81 89/1274/81
f 89/1274/81 88/1275/81 101/233/81
f 88/1275/81 87/1276/81 101/233/81
f 87/1276/81 86/1263/81 101/233/81
f 93/235/81 91/1272/81 101/233/81
f 91/1272/81 89/1274/81 101/233/81
f 239/35/81 103/262/81 104/236/81
f 104/236/81 105/279/81 106/241/81
f 106/241/81 107/247/81 104/236/81
f 107/247/81 108/237/81 104/236/81
f 108/237/81 109/259/81 110/266/81
f 110/266/81 111/272/81 108/237/81
f 111/272/81 112/238/81 108/237/81
f 112/238/81 113/282/81 114/1277/81
f 114/1277/81 115/250/81 116/1278/81
f 116/1278/81 117/264/81 104/236/81
f 117/264/81 148/37/81 104/236/81
f 148/37/81 239/35/81 104/236/81
f 112/238/81 114/1277/81 104/236/81
f 114/1277/81 116/1278/81 104/236/81
f 72/1257/82 71/200/82 239/35/82
f 239/35/82 148/37/82 85/202/82
f 85/202/82 84/1254/82 83/188/82
f 83/188/82 82/228/82 81/1260/82
f 81/1260/82 80/216/82 79/239/82
f 79/239/82 78/1256/82 77/197/82
f 77/197/82 76/1253/82 75/240/82
f 75/240/82 74/225/82 73/1259/82
f 73/1259/82 72/1257/82 75/240/82
f 72/1257/82 239/35/82 75/240/82
f 239/35/82 85/202/82 83/188/82
f 83/188/82 81/1260/82 239/35/82
f 81/1260/82 79/239/82 239/35/82
f 79/239/82 77/197/82 75/240/82
f 106/241/83 121/1279/83 122/242/83
f 115/244/84 114/1277/84 129/245/84
f 107/247/85 122/1280/85 123/248/85
f 115/250/86 130/1281/86 131/251/86
f 109/253/87 108/237/87 123/254/87
f 117/256/88 116/1278/88 131/257/88
f 109/259/89 124/1282/89 125/260/89
f 110/266/92 125/1283/92 126/267/92
f 103/269/93 118/263/93 119/270/93
f 111/272/94 126/1284/94 127/273/94
f 104/236/95 119/1285/95 120/275/95
f 112/238/96 127/1286/96 128/277/96
f 105/279/97 120/1287/97 121/280/97
f 113/282/98 128/1288/98 129/283/98
f 126/285/99 125/1289/99 140/286/99
f 118/288/100 133/328/100 134/289/100
f 126/291/101 141/1290/101 142/292/101
f 119/294/102 134/1291/102 135/295/102
f 128/297/103 127/1292/103 142/298/103
f 121/300/104 120/1293/104 135/301/104
f 128/303/105 143/1294/105 144/304/105
f 122/306/106 121/1295/106 136/307/106
f 130/309/107 129/1296/107 144/310/107
f 122/312/108 137/1297/108 138/313/108
f 130/315/109 145/1298/109 146/316/109
f 124/318/110 123/1299/110 138/319/110
f 132/321/111 131/1300/111 146/322/111
f 124/324/112 139/1301/112 140/325/112
f 145/331/115 144/1302/115 160/332/115
f 137/334/116 153/1303/116 154/335/116
f 145/337/117 161/1304/117 162/338/117
f 139/340/118 138/1305/118 154/341/118
f 146/343/119 162/1306/119 163/344/119
f 139/346/120 155/1307/120 156/347/120
f 140/353/123 156/1308/123 157/354/123
f 133/356/124 149/350/124 150/357/124
f 141/359/125 157/1309/125 158/360/125
f 135/362/126 134/1310/126 150/363/126
f 143/365/127 142/1311/127 158/366/127
f 135/368/128 151/1312/128 152/369/128
f 143/371/129 159/1313/129 160/372/129
f 136/374/130 152/1314/130 153/375/130
f 149/377/131 164/417/131 165/378/131
f 157/380/132 172/1315/132 173/381/132
f 150/383/133 165/1316/133 166/384/133
f 159/386/134 158/1317/134 173/387/134
f 151/389/135 166/1318/135 167/390/135
f 159/392/136 174/1319/136 175/393/136
f 152/395/137 167/1320/137 168/396/137
f 160/398/138 175/1321/138 176/399/138
f 153/401/139 168/1322/139 169/402/139
f 161/404/140 176/1323/140 177/405/140
f 155/407/141 154/1324/141 169/408/141
f 163/410/142 162/1325/142 177/411/142
f 155/413/143 170/1326/143 171/414/143
f 156/420/146 171/1327/146 172/421/146
f 168/423/147 183/1328/147 184/424/147
f 176/426/148 191/1329/148 192/427/148
f 170/429/149 169/1330/149 184/430/149
f 178/432/150 177/1331/150 192/433/150
f 170/435/151 185/1332/151 186/436/151
f 171/442/154 186/1333/154 187/443/154
f 164/445/155 179/439/155 180/446/155
f 172/448/156 187/1334/156 188/449/156
f 166/451/157 165/1335/157 180/452/157
f 174/454/158 173/1336/158 188/455/158
f 167/457/159 166/1337/159 181/458/159
f 174/460/160 189/1338/160 190/461/160
f 167/463/161 182/1339/161 183/464/161
f 176/466/162 175/1340/162 190/467/162
f 187/469/163 202/1341/163 203/470/163
f 180/472/164 195/1342/164 196/473/164
f 189/475/165 188/1343/165 203/476/165
f 182/478/166 181/1344/166 196/479/166
f 189/481/167 204/1345/167 205/482/167
f 183/484/168 182/1346/168 197/485/168
f 190/487/169 205/1347/169 206/488/169
f 183/490/170 198/1348/170 199/491/170
f 191/493/171 206/1349/171 207/494/171
f 185/496/172 184/1350/172 199/497/172
f 192/499/173 207/1351/173 208/500/173
f 185/502/174 200/1352/174 201/503/174
f 186/509/177 201/1353/177 202/510/177
f 179/512/178 194/506/178 195/513/178
f 207/515/179 206/1354/179 221/516/179
f 200/518/180 199/1355/180 214/519/180
f 208/521/181 207/1356/181 222/522/181
f 200/524/182 215/1357/182 216/525/182
f 202/531/185 201/1358/185 216/532/185
f 194/534/186 209/528/186 210/535/186
f 202/537/187 217/1359/187 218/538/187
f 195/540/188 210/1360/188 211/541/188
f 204/543/189 203/1361/189 218/544/189
f 197/546/190 196/1362/190 211/547/190
f 204/549/191 219/1363/191 220/550/191
f 198/552/192 197/1364/192 212/553/192
f 205/555/193 220/1365/193 221/556/193
f 198/558/194 213/1366/194 214/559/194
f 219/561/195 218/1367/195 233/562/195
f 211/564/196 226/1368/196 227/565/196
f 219/567/197 234/1369/197 235/568/197
f 213/570/198 212/1370/198 227/571/198
f 221/573/199 220/1371/199 235/574/199
f 213/576/200 228/1372/200 229/577/200
f 221/579/427 236/1373/427 237/580/427
f 215/582/202 214/1374/202 229/583/202
f 223/585/203 222/1375/203 237/586/203
f 215/588/204 230/1376/204 231/589/204
f 216/595/207 231/1377/207 232/596/207
f 209/598/208 224/592/208 225/599/208
f 217/601/209 232/1378/209 233/602/209
f 210/604/428 225/1379/428 226/605/428
f 237/607/211 253/1380/211 254/608/211
f 231/610/212 230/1381/212 246/611/212
f 231/617/215 247/1382/215 248/618/215
f 224/620/216 240/614/216 241/621/216
f 232/623/217 248/1383/217 249/624/217
f 225/626/218 241/1384/218 242/627/218
f 234/629/219 233/1385/219 249/630/219
f 227/632/220 226/1386/220 242/633/220
f 234/635/221 250/1387/221 251/636/221
f 228/638/222 227/1388/222 243/639/222
f 235/641/223 251/1389/223 252/642/223
f 228/644/224 244/1390/224 245/645/224
f 236/647/225 252/1391/225 253/648/225
f 230/650/226 229/1392/226 245/651/226
f 243/653/227 242/1393/227 257/654/227
f 250/656/228 265/1394/228 266/657/228
f 244/659/229 243/1395/229 258/660/229
f 251/662/230 266/1396/230 267/663/230
f 244/665/231 259/1397/231 260/666/231
f 253/668/232 252/1398/232 267/669/232
f 246/671/233 245/1399/233 260/672/233
f 253/674/234 268/1400/234 269/675/234
f 246/677/235 261/1401/235 262/678/235
f 247/684/238 262/1402/238 263/685/238
f 240/687/239 255/681/239 256/688/239
f 248/690/240 263/1403/240 264/691/240
f 241/693/241 256/1404/241 257/694/241
f 250/696/242 249/1405/242 264/697/242
f 261/699/243 276/1406/243 277/700/243
f 262/706/246 277/1407/246 278/707/246
f 255/709/247 270/703/247 271/710/247
f 263/712/248 278/1408/248 279/713/248
f 256/715/249 271/1409/249 272/716/249
f 265/718/250 264/1410/250 279/719/250
f 258/721/251 257/1411/251 272/722/251
f 266/724/252 265/1412/252 280/725/252
f 259/727/253 258/1413/253 273/728/253
f 266/730/254 281/1414/254 282/731/254
f 259/733/255 274/1415/255 275/734/255
f 268/736/256 267/1416/256 282/737/256
f 261/739/257 260/1417/257 275/740/257
f 269/742/429 268/1418/429 283/743/429
f 280/745/259 295/1419/259 296/746/259
f 274/748/260 273/1420/260 288/749/260
f 281/751/261 296/1421/261 297/752/261
f 274/754/262 289/1422/262 290/755/262
f 283/757/263 282/1423/263 297/758/263
f 276/760/264 275/1424/264 290/761/264
f 283/763/265 298/1425/265 299/764/265
f 276/766/266 291/1426/266 292/767/266
f 277/773/269 292/1427/269 293/774/269
f 271/776/270 270/1428/270 285/770/270
f 278/778/271 293/1429/271 294/779/271
f 271/781/272 286/1430/272 287/782/272
f 280/784/273 279/1431/273 294/785/273
f 273/787/274 272/1432/274 287/788/274
f 293/794/277 292/1433/277 307/795/277
f 286/797/278 285/1434/278 300/791/278
f 293/799/279 308/1435/279 309/800/279
f 286/802/280 301/1436/280 302/803/280
f 295/805/281 294/1437/281 309/806/281
f 288/808/282 287/1438/282 302/809/282
f 295/811/283 310/1439/283 311/812/283
f 288/814/284 303/1440/284 304/815/284
f 297/817/285 296/1441/285 311/818/285
f 289/820/286 304/1442/286 305/821/286
f 298/823/287 297/1443/287 312/824/287
f 291/826/288 290/1444/288 305/827/288
f 298/829/289 313/1445/289 314/830/289
f 291/832/290 306/1446/290 307/833/290
f 304/835/291 303/1447/291 318/836/291
f 311/838/292 326/1448/292 327/839/292
f 304/841/293 319/1449/293 320/842/293
f 313/844/294 312/1450/294 327/845/294
f 306/847/295 305/1451/295 320/848/295
f 313/850/296 328/1452/296 329/851/296
f 306/853/430 321/1453/430 322/854/430
f 308/860/431 307/1454/431 322/861/431
f 301/863/301 300/1455/301 315/857/301
f 308/865/302 323/1456/302 324/866/302
f 301/868/303 316/1457/303 317/869/303
f 310/871/304 309/1458/304 324/872/304
f 303/874/305 302/1459/305 317/875/305
f 310/877/306 325/1460/306 326/878/306
f 322/880/307 337/1461/307 338/881/307
f 315/883/308 330/923/308 331/884/308
f 323/886/309 338/1462/309 339/887/309
f 316/889/310 331/1463/310 332/890/310
f 325/892/311 324/1464/311 339/893/311
f 318/895/312 317/1465/312 332/896/312
f 325/898/313 340/1466/313 341/899/313
f 318/901/314 333/1467/314 334/902/314
f 326/904/315 341/1468/315 342/905/315
f 319/907/316 334/1469/316 335/908/316
f 328/910/317 327/1470/317 342/911/317
f 321/913/318 320/1471/318 335/914/318
f 328/916/319 343/1472/319 344/917/319
f 321/919/320 336/1473/320 337/920/320
f 341/926/323 356/1474/323 357/927/323
f 334/929/324 349/1475/324 350/930/324
f 343/932/325 342/1476/325 357/933/325
f 336/935/326 335/1477/326 350/936/326
f 343/938/327 358/1478/327 359/939/327
f 336/941/328 351/1479/328 352/942/328
f 338/948/331 337/1480/331 352/949/331
f 330/951/432 345/945/432 346/952/432
f 338/954/333 353/1481/333 354/955/333
f 332/957/433 331/1482/433 346/958/433
f 340/960/335 339/1483/335 354/961/335
f 333/963/336 332/1484/336 347/964/336
f 340/966/337 355/1485/337 356/967/337
f 334/969/338 333/1486/338 348/970/338
f 353/972/339 368/1487/339 369/973/339
f 346/975/340 361/1488/340 362/976/340
f 355/978/341 354/1489/341 369/979/341
f 347/981/342 362/1490/342 363/982/342
f 355/984/343 370/1491/343 371/985/343
f 349/987/344 348/1492/344 363/988/344
f 356/990/345 371/1493/345 372/991/345
f 349/993/346 364/1494/346 365/994/346
f 357/996/347 372/1495/347 373/997/347
f 351/999/348 350/1496/348 365/1000/348
f 358/1002/349 373/1497/349 374/1003/349
f 351/1005/350 366/1498/350 367/1006/350
f 353/1012/353 352/1499/353 367/1013/353
f 345/1015/354 360/1009/354 361/1016/354
f 372/1018/355 387/1500/355 388/1019/355
f 366/1021/356 365/1501/356 380/1022/356
f 373/1024/357 388/1502/357 389/1025/357
f 367/1027/358 366/1503/358 381/1028/358
f 367/1034/361 382/1504/361 383/1035/361
f 360/1037/362 375/1031/362 376/1038/362
f 368/1040/363 383/1505/363 384/1041/363
f 361/1043/364 376/1506/364 377/1044/364
f 370/1046/365 369/1507/365 384/1047/365
f 362/1049/366 377/1508/366 378/1050/366
f 370/1052/367 385/1509/367 386/1053/367
f 364/1055/368 363/1510/368 378/1056/368
f 372/1058/369 371/1511/369 386/1059/369
f 364/1061/370 379/1512/370 380/1062/370
f 377/1064/434 376/1513/434 391/1065/434
f 385/1067/372 384/1514/372 399/1068/372
f 378/1070/373 377/1515/373 392/1071/373
f 385/1073/374 400/1516/374 401/1074/374
f 379/1076/375 378/1517/375 393/1077/375
f 386/1079/376 401/1518/376 402/1080/376
f 379/1082/377 394/1519/377 395/1083/377
f 387/1085/435 402/1520/435 403/1086/435
f 381/1088/379 380/1521/379 395/1089/379
f 388/1091/380 403/1522/380 404/1092/380
f 381/1094/381 396/1523/381 397/1095/381
f 382/1101/384 397/1524/384 398/1102/384
f 376/1104/385 375/1525/385 390/1098/385
f 383/1106/386 398/1526/386 399/1107/386
f 396/1109/387 395/1527/387 410/1110/387
f 404/1112/388 403/1528/388 418/1113/388
f 396/1115/389 411/1529/389 412/1116/389
f 397/1122/392 412/1530/392 413/1123/392
f 390/1125/393 405/1119/393 406/1126/393
f 398/1128/394 413/1531/394 414/1129/394
f 391/1131/395 406/1532/395 407/1132/395
f 400/1134/396 399/1533/396 414/1135/396
f 392/1137/397 407/1534/397 408/1138/397
f 400/1140/398 415/1535/398 416/1141/398
f 394/1143/399 393/1536/399 408/1144/399
f 401/1146/400 416/1537/400 417/1147/400
f 394/1149/401 409/1538/401 410/1150/401
f 402/1152/402 417/1539/402 418/1153/402
f 415/1155/403 414/1540/403 420/1156/403
f 408/1158/404 407/1541/404 3/1159/404
f 415/1161/405 421/1542/405 422/1162/405
f 409/1164/406 408/1543/406 4/1165/406
f 416/1167/407 422/1544/407 10/1168/407
f 410/1170/408 409/1545/408 5/1171/408
f 417/1173/409 10/1546/409 423/1174/409
f 411/1176/410 410/1547/410 6/1177/410
f 418/1179/411 423/1548/411 424/1180/411
f 412/1182/436 411/1549/436 7/1183/436
f 412/1189/437 8/1550/437 9/1190/437
f 406/1192/416 405/1551/416 1/1186/416
f 413/1194/417 9/1552/417 420/1195/417
f 407/1197/418 406/1553/418 2/1198/418
